[gd_scene format=3 uid="uid://buhrrk8nxqcmu"]

[node name="CharacterSelect" type="PanelContainer"]
anchors_preset = 15
anchor_right = 1.0
anchor_bottom = 1.0
grow_horizontal = 2
grow_vertical = 2

[node name="Vbox" type="VBoxContainer" parent="."]
layout_mode = 2

[node name="Hbox" type="HBoxContainer" parent="Vbox"]
layout_mode = 2

[node name="SusS" type="Button" parent="Vbox/Hbox"]
layout_mode = 2
theme_override_font_sizes/font_size = 50
text = "Sus Squirrel"

[node name="GrassS" type="Button" parent="Vbox/Hbox"]
layout_mode = 2
theme_override_font_sizes/font_size = 45
text = "Grass Squirrel"

[node name="SkwirrelS" type="Button" parent="Vbox/Hbox"]
layout_mode = 2
theme_override_font_sizes/font_size = 50
text = "Skwirrel"

[node name="Xbox" type="HBoxContainer" parent="Vbox"]
layout_mode = 2

[node name="LavaS" type="Button" parent="Vbox/Xbox"]
layout_mode = 2
theme_override_font_sizes/font_size = 45
text = "Lava Squirrel"

[node name="DesertS" type="Button" parent="Vbox/Xbox"]
layout_mode = 2
theme_override_font_sizes/font_size = 45
text = "Desert Squirrel"

[node name="SnowS" type="Button" parent="Vbox/Xbox"]
layout_mode = 2
theme_override_font_sizes/font_size = 45
text = "Snow Squirrel"
