[gd_scene load_steps=8 format=3 uid="uid://bokf1k1it3opi"]

[ext_resource type="Texture2D" uid="uid://chl0grulht58x" path="res://Terrain/Tileset.png" id="1_4lam7"]
[ext_resource type="PackedScene" uid="uid://6dvfdwx650ea" path="res://Squirrels/SUS_Squirrel.tscn" id="2_a1e7e"]
[ext_resource type="PackedScene" uid="uid://bokhur383ihw8" path="res://Squirrels/Skwirrel.tscn" id="2_ahhre"]
[ext_resource type="PackedScene" uid="uid://dn1vdlao6i8x" path="res://AcornSpawner/GoldenAcornSpawner.tscn" id="5_cqy1n"]
[ext_resource type="PackedScene" uid="uid://cjjedyqye001j" path="res://AcornSpawner/AcornSpawner.tscn" id="5_klrrk"]

[sub_resource type="TileSetAtlasSource" id="TileSetAtlasSource_rnnse"]
texture = ExtResource("1_4lam7")
0:0/0 = 0
0:0/0/physics_layer_0/linear_velocity = Vector2(0, 0)
0:0/0/physics_layer_0/angular_velocity = 0.0
1:0/0 = 0
1:0/0/physics_layer_0/linear_velocity = Vector2(0, 0)
1:0/0/physics_layer_0/angular_velocity = 0.0
2:0/0 = 0
2:0/0/physics_layer_0/linear_velocity = Vector2(0, 0)
2:0/0/physics_layer_0/angular_velocity = 0.0
2:0/0/physics_layer_0/polygon_0/points = PackedVector2Array(-8, -8, 8, -8, 8, 6.125, 8, 8, -8, 8)
0:1/0 = 0
0:1/0/physics_layer_0/linear_velocity = Vector2(0, 0)
0:1/0/physics_layer_0/angular_velocity = 0.0
0:1/0/physics_layer_0/polygon_0/points = PackedVector2Array(8, -8, -8, 8, 8, 8)
0:1/0/physics_layer_0/polygon_1/points = PackedVector2Array(-8, -8, -8, 8, 8, -8)
1:1/0 = 0
1:1/0/physics_layer_0/linear_velocity = Vector2(0, 0)
1:1/0/physics_layer_0/angular_velocity = 0.0
2:1/0 = 0
2:1/0/physics_layer_0/linear_velocity = Vector2(0, 0)
2:1/0/physics_layer_0/angular_velocity = 0.0
0:2/0 = 0
0:2/0/physics_layer_0/linear_velocity = Vector2(0, 0)
0:2/0/physics_layer_0/angular_velocity = 0.0
1:2/0 = 0
1:2/0/physics_layer_0/linear_velocity = Vector2(0, 0)
1:2/0/physics_layer_0/angular_velocity = 0.0
1:2/0/physics_layer_0/polygon_0/points = PackedVector2Array(-8, -8, 8, -8, 8, 8, -8, 8)
2:2/0 = 0
2:2/0/physics_layer_0/linear_velocity = Vector2(0, 0)
2:2/0/physics_layer_0/angular_velocity = 0.0

[sub_resource type="TileSet" id="TileSet_oexx3"]
physics_layer_0/collision_layer = 1
sources/1 = SubResource("TileSetAtlasSource_rnnse")

[node name="Lv_3" type="Node2D"]
position = Vector2(0, 6)

[node name="TileMap" type="TileMap" parent="."]
position = Vector2(3, 43)
scale = Vector2(3, 3)
tile_set = SubResource("TileSet_oexx3")
rendering_quadrant_size = 23
format = 2
layer_0/tile_data = PackedInt32Array(2555903, 1, 1, 2621439, 1, 1, 2686975, 1, 1, 2490368, 1, 1, 2555904, 1, 1, 2621440, 1, 1, 2490369, 1, 1, 2555905, 1, 1, 2621441, 1, 1, 2490370, 1, 1, 2555906, 1, 1, 2621442, 1, 1, 2490371, 1, 1, 2555907, 1, 1, 2621443, 1, 1, 2490372, 1, 1, 2555908, 1, 1, 2621444, 1, 1, 2490373, 1, 1, 2555909, 1, 1, 2621445, 1, 1, 2490374, 1, 1, 2555910, 1, 1, 2621446, 1, 1, 2490375, 1, 1, 2555911, 1, 1, 2621447, 1, 1, 2490376, 1, 1, 2555912, 1, 1, 2621448, 1, 1, 2490377, 1, 1, 2555913, 1, 1, 2621449, 1, 1, 2490378, 1, 1, 2555914, 1, 1, 2621450, 1, 1, 2490379, 1, 1, 2555915, 1, 1, 2621451, 1, 1, 2490380, 1, 1, 2555916, 1, 1, 2621452, 1, 1, 2490381, 1, 1, 2555917, 1, 1, 2621453, 1, 1, 2490382, 1, 1, 2555918, 1, 1, 2621454, 1, 1, 2490383, 1, 1, 2555919, 1, 1, 2621455, 1, 1, 2490384, 1, 1, 2555920, 1, 1, 2621456, 1, 1, 2490385, 1, 1, 2555921, 1, 1, 2621457, 1, 1, 2490386, 1, 1, 2555922, 1, 1, 2621458, 1, 1, 2490387, 1, 1, 2555923, 1, 1, 2621459, 1, 1, 2490388, 1, 1, 2555924, 1, 1, 2621460, 1, 1, 2490389, 1, 1, 2555925, 1, 1, 2621461, 1, 1, 2490390, 1, 1, 2555926, 1, 1, 2621462, 1, 1, 2490391, 1, 1, 2555927, 1, 1, 2621463, 1, 1, 2490392, 1, 1, 2555928, 1, 1, 2621464, 1, 1, 2490393, 1, 1, 2555929, 1, 1, 2621465, 1, 1, 2490394, 1, 1, 2555930, 1, 1, 2621466, 1, 1, 2490395, 1, 1, 2555931, 1, 1, 2621467, 1, 1, 2490396, 1, 1, 2555932, 1, 1, 2621468, 1, 1, 2490397, 1, 1, 2555933, 1, 1, 2621469, 1, 1, 2490398, 1, 1, 2555934, 1, 1, 2621470, 1, 1, 2490399, 1, 1, 2555935, 1, 1, 2621471, 1, 1, 2490400, 1, 1, 2555936, 1, 1, 2621472, 1, 1, 2490401, 1, 1, 2555937, 1, 1, 2621473, 1, 1, 2490402, 1, 1, 2555938, 1, 1, 2621474, 1, 1, 2490403, 1, 1, 2555939, 1, 1, 2621475, 1, 1, 2490404, 1, 1, 2555940, 1, 1, 2621476, 1, 1, 2490405, 1, 1, 2555941, 1, 1, 2621477, 1, 1, 2490406, 1, 1, 2555942, 1, 1, 2621478, 1, 1, 2490407, 1, 1, 2555943, 1, 1, 2621479, 1, 1, 2490408, 1, 1, 2555944, 1, 1, 2621480, 1, 1, 2490409, 1, 1, 2555945, 1, 1, 2621481, 1, 1, 2490410, 1, 1, 2555946, 1, 1, 2621482, 1, 1, 2490411, 1, 1, 2555947, 1, 1, 2621483, 1, 1, 2490412, 1, 1, 2555948, 1, 1, 2621484, 1, 1, 2490413, 1, 1, 2555949, 1, 1, 2621485, 1, 1, 2490414, 1, 1, 2555950, 1, 1, 2621486, 1, 1, 2490415, 1, 1, 2555951, 1, 1, 2621487, 1, 1, 2490416, 1, 1, 2555952, 1, 1, 2621488, 1, 1, 2490417, 1, 1, 2555953, 1, 1, 2621489, 1, 1, 2490418, 1, 1, 2555954, 1, 1, 2621490, 1, 1, 2490419, 1, 1, 2555955, 1, 1, 2621491, 1, 1, 2490420, 1, 1, 2555956, 1, 1, 2621492, 1, 1, 2490421, 1, 1, 2555957, 1, 1, 2621493, 1, 1, 2490422, 1, 1, 2555958, 1, 1, 2621494, 1, 1, 2490423, 1, 1, 2555959, 1, 1, 2621495, 1, 1, 2490424, 1, 1, 2555960, 1, 1, 2621496, 1, 1, 2490425, 1, 1, 2555961, 1, 1, 2621497, 1, 1, 2490426, 1, 1, 2555962, 1, 1, 2621498, 1, 1, 2490427, 1, 1, 2555963, 1, 1, 2621499, 1, 1, 2490428, 1, 1, 2555964, 1, 1, 2621500, 1, 1, 2490429, 1, 1, 2555965, 1, 1, 2621501, 1, 1, 2490430, 1, 1, 2555966, 1, 1, 2621502, 1, 1, 2490431, 1, 1, 2555967, 1, 1, 2621503, 1, 1, 2490432, 1, 1, 2555968, 1, 1, 2621504, 1, 1, 2490433, 1, 1, 2555969, 1, 1, 2621505, 1, 1, 2490434, 1, 1, 2555970, 1, 1, 2621506, 1, 1, 2490435, 1, 1, 2555971, 1, 1, 2621507, 1, 1, 2490436, 1, 1, 2555972, 1, 1, 2621508, 1, 1, 2490437, 1, 1, 2555973, 1, 1, 2621509, 1, 1, 2490438, 1, 1, 2555974, 1, 1, 2621510, 1, 1, 2490439, 1, 1, 2555975, 1, 1, 2621511, 1, 1, 2293760, 1, 1, 2359296, 1, 1, 2424832, 1, 1, 2293761, 1, 1, 2359297, 1, 1, 2424833, 1, 1, 2293762, 1, 1, 2359298, 1, 1, 2424834, 1, 1, 2293763, 1, 1, 2359299, 1, 1, 2424835, 1, 1, 2293764, 1, 1, 2359300, 1, 1, 2424836, 1, 1, 2293765, 1, 1, 2359301, 1, 1, 2424837, 1, 1, 2293766, 1, 1, 2359302, 1, 1, 2424838, 1, 1, 2293767, 1, 1, 2359303, 1, 1, 2424839, 1, 1, 2293768, 1, 1, 2359304, 1, 1, 2424840, 1, 1, 2293769, 1, 1, 2359305, 1, 1, 2424841, 1, 1, 2293770, 1, 1, 2359306, 1, 1, 2424842, 1, 1, 2293771, 1, 1, 2359307, 1, 1, 2424843, 1, 1, 2293772, 1, 1, 2359308, 1, 1, 2424844, 1, 1, 2293773, 1, 1, 2359309, 1, 1, 2424845, 1, 1, 2293774, 1, 1, 2359310, 1, 1, 2424846, 1, 1, 2293775, 1, 1, 2359311, 1, 1, 2424847, 1, 1, 2293776, 1, 1, 2359312, 1, 1, 2424848, 1, 1, 2293777, 1, 1, 2359313, 1, 1, 2424849, 1, 1, 2293778, 1, 1, 2359314, 1, 1, 2424850, 1, 1, 2293779, 1, 1, 2359315, 1, 1, 2424851, 1, 1, 2293780, 1, 1, 2359316, 1, 1, 2424852, 1, 1, 2293781, 1, 1, 2359317, 1, 1, 2424853, 1, 1, 2293782, 1, 1, 2359318, 1, 1, 2424854, 1, 1, 2293783, 1, 1, 2359319, 1, 1, 2424855, 1, 1, 2293784, 1, 1, 2359320, 1, 1, 2424856, 1, 1, 2293785, 1, 1, 2359321, 1, 1, 2424857, 1, 1, 2293786, 1, 1, 2359322, 1, 1, 2424858, 1, 1, 2293787, 1, 1, 2359323, 1, 1, 2424859, 1, 1, 2293788, 1, 1, 2359324, 1, 1, 2424860, 1, 1, 2293789, 1, 1, 2359325, 1, 1, 2424861, 1, 1, 2293790, 1, 1, 2359326, 1, 1, 2424862, 1, 1, 2293791, 1, 1, 2359327, 1, 1, 2424863, 1, 1, 2293792, 1, 1, 2359328, 1, 1, 2424864, 1, 1, 2293793, 1, 1, 2359329, 1, 1, 2424865, 1, 1, 2293794, 1, 1, 2359330, 1, 1, 2424866, 1, 1, 2293795, 1, 1, 2359331, 1, 1, 2424867, 1, 1, 2293796, 1, 1, 2359332, 1, 1, 2424868, 1, 1, 2293797, 1, 1, 2359333, 1, 1, 2424869, 1, 1, 2293798, 1, 1, 2359334, 1, 1, 2424870, 1, 1, 2293799, 1, 1, 2359335, 1, 1, 2424871, 1, 1, 2293800, 1, 1, 2359336, 1, 1, 2424872, 1, 1, 2293801, 1, 1, 2359337, 1, 1, 2424873, 1, 1, 2293802, 1, 1, 2359338, 1, 1, 2424874, 1, 1, 2293803, 1, 1, 2359339, 1, 1, 2424875, 1, 1, 2293804, 1, 1, 2359340, 1, 1, 2424876, 1, 1, 2293805, 1, 1, 2359341, 1, 1, 2424877, 1, 1, 2293806, 1, 1, 2359342, 1, 1, 2424878, 1, 1, 2293807, 1, 1, 2359343, 1, 1, 2424879, 1, 1, 2293808, 1, 1, 2359344, 1, 1, 2424880, 1, 1, 2293809, 1, 1, 2359345, 1, 1, 2424881, 1, 1, 2293810, 1, 1, 2359346, 1, 1, 2424882, 1, 1, 2293811, 1, 1, 2359347, 1, 1, 2424883, 1, 1, 2293812, 1, 1, 2359348, 1, 1, 2424884, 1, 1, 2293813, 1, 1, 2359349, 1, 1, 2424885, 1, 1, 2293814, 1, 1, 2359350, 1, 1, 2424886, 1, 1, 2293815, 1, 1, 2359351, 1, 1, 2424887, 1, 1, 2293816, 1, 1, 2359352, 1, 1, 2424888, 1, 1, 2293817, 1, 1, 2359353, 1, 1, 2424889, 1, 1, 2293818, 1, 1, 2359354, 1, 1, 2424890, 1, 1, 2293819, 1, 1, 2359355, 1, 1, 2424891, 1, 1, 2293820, 1, 1, 2359356, 1, 1, 2424892, 1, 1, 2293821, 1, 1, 2359357, 1, 1, 2424893, 1, 1, 2293822, 1, 1, 2359358, 1, 1, 2424894, 1, 1, 2293823, 1, 1, 2359359, 1, 1, 2424895, 1, 1, 2293824, 1, 1, 2359360, 1, 1, 2424896, 1, 1, 2293825, 1, 1, 2359361, 1, 1, 2424897, 1, 1, 2293826, 1, 1, 2359362, 1, 1, 2424898, 1, 1, 2293827, 1, 1, 2359363, 1, 1, 2424899, 1, 1, 2293828, 1, 1, 2359364, 1, 1, 2424900, 1, 1, 2293829, 1, 1, 2359365, 1, 1, 2424901, 1, 1, 2293830, 1, 1, 2359366, 1, 1, 2424902, 1, 1, 2293831, 1, 1, 2359367, 1, 1, 2424903, 1, 1, 2424826, 1, 1, 2490362, 1, 1, 2555898, 1, 1, 2621434, 1, 1, 2686970, 1, 1, 2752506, 1, 1, 2424827, 1, 1, 2490363, 1, 1, 2555899, 1, 1, 2621435, 1, 1, 2686971, 1, 1, 2752507, 1, 1, 2424828, 1, 1, 2490364, 1, 1, 2555900, 1, 1, 2621436, 1, 1, 2686972, 1, 1, 2752508, 1, 1, 2424829, 1, 1, 2490365, 1, 1, 2555901, 1, 1, 2621437, 1, 1, 2686973, 1, 1, 2752509, 1, 1, 2424830, 1, 1, 2490366, 1, 1, 2555902, 1, 1, 2621438, 1, 1, 2686974, 1, 1, 2752510, 1, 1, 2424831, 1, 1, 2490367, 1, 1, 2752511, 1, 1, 2686976, 1, 1, 2686977, 1, 1, 2686978, 1, 1, 2686979, 1, 1, 2686980, 1, 1, 2686981, 1, 1, 2686982, 1, 1, 2686983, 1, 1, 2686984, 1, 1, 2686985, 1, 1, 2686986, 1, 1, 2686987, 1, 1, 2686988, 1, 1, 2686989, 1, 1, 2686990, 1, 1, 2686991, 1, 1, 2686992, 1, 1, 2686993, 1, 1, 2686994, 1, 1, 2686995, 1, 1, 2686996, 1, 1, 2686997, 1, 1, 2686998, 1, 1, 2686999, 1, 1, 2687000, 1, 1, 2687001, 1, 1, 2687002, 1, 1, 2687003, 1, 1, 2687004, 1, 1, 2687005, 1, 1, 2687006, 1, 1, 2687007, 1, 1, 2687008, 1, 1, 2687009, 1, 1, 2687010, 1, 1, 2687011, 1, 1, 2687012, 1, 1, 2687013, 1, 1, 2687014, 1, 1, 2687015, 1, 1, 2687016, 1, 1, 2687017, 1, 1, 2687018, 1, 1, 2687019, 1, 1, 2687020, 1, 1, 2687021, 1, 1, 2687022, 1, 1, 2687023, 1, 1, 2687024, 1, 1, 2687025, 1, 1, 2687026, 1, 1, 2687027, 1, 1, 2687028, 1, 1, 2687029, 1, 1, 2687030, 1, 1, 2687031, 1, 1, 2687032, 1, 1, 2687033, 1, 1, 2687034, 1, 1, 2687035, 1, 1, 2687036, 1, 1, 2687037, 1, 1, 2687038, 1, 1, 2687039, 1, 1, 2687040, 1, 1, 2687041, 1, 1, 2687042, 1, 1, 2687043, 1, 1, 2687044, 1, 1, 2687045, 1, 1, 2687046, 1, 1, 2687047, 1, 1, 2359368, 1, 1, 2424904, 1, 1, 2490440, 1, 1, 2555976, 1, 1, 2621512, 1, 1, 2687048, 1, 1, 2359369, 1, 1, 2424905, 1, 1, 2490441, 1, 1, 2555977, 1, 1, 2621513, 1, 1, 2687049, 1, 1, 2359370, 1, 1, 2424906, 1, 1, 2490442, 1, 1, 2555978, 1, 1, 2621514, 1, 1, 2687050, 1, 1, 1310702, 1, 1, 1376238, 1, 1, 1441774, 1, 1, 1507310, 1, 1, 1572846, 1, 1, 1638382, 1, 1, 1703918, 1, 1, 1769454, 1, 1, 1834990, 1, 1, 1900526, 1, 1, 1966062, 1, 1, 2031598, 1, 1, 2097134, 1, 1, 2162670, 1, 1, 2228206, 1, 1, 2293742, 1, 1, 2359278, 1, 1, 2424814, 1, 1, 2490350, 1, 1, 2555886, 1, 1, 2621422, 1, 1, 2686958, 1, 1, 2752494, 1, 1, 2818030, 1, 1, 1310703, 1, 1, 1376239, 1, 1, 1441775, 1, 1, 1507311, 1, 1, 1572847, 1, 1, 1638383, 1, 1, 1703919, 1, 1, 1769455, 1, 1, 1834991, 1, 1, 1900527, 1, 1, 1966063, 1, 1, 2031599, 1, 1, 2097135, 1, 1, 2162671, 1, 1, 2228207, 1, 1, 2293743, 1, 1, 2359279, 1, 1, 2424815, 1, 1, 2490351, 1, 1, 2555887, 1, 1, 2621423, 1, 1, 2686959, 1, 1, 2752495, 1, 1, 2818031, 1, 1, 1703920, 1, 1, 1769456, 1, 1, 1834992, 1, 1, 1900528, 1, 1, 1966064, 1, 1, 2031600, 1, 1, 2097136, 1, 1, 2162672, 1, 1, 2228208, 1, 1, 2293744, 1, 1, 2359280, 1, 1, 2424816, 1, 1, 2490352, 1, 1, 2555888, 1, 1, 2621424, 1, 1, 2686960, 1, 1, 2752496, 1, 1, 2818032, 1, 1, 1703921, 1, 1, 1769457, 1, 1, 1834993, 1, 1, 1900529, 1, 1, 1966065, 1, 1, 2031601, 1, 1, 2097137, 1, 1, 2162673, 1, 1, 2228209, 1, 1, 2293745, 1, 1, 2359281, 1, 1, 2424817, 1, 1, 2490353, 1, 1, 2555889, 1, 1, 2621425, 1, 1, 2686961, 1, 1, 2752497, 1, 1, 2818033, 1, 1, 1703922, 1, 1, 1769458, 1, 1, 1834994, 1, 1, 1900530, 1, 1, 1966066, 1, 1, 2031602, 1, 1, 2097138, 1, 1, 2162674, 1, 1, 2228210, 1, 1, 2293746, 1, 1, 2359282, 1, 1, 2424818, 1, 1, 2490354, 1, 1, 2555890, 1, 1, 2621426, 1, 1, 2686962, 1, 1, 2752498, 1, 1, 2818034, 1, 1, 1703923, 1, 1, 1769459, 1, 1, 1834995, 1, 1, 1900531, 1, 1, 1966067, 1, 1, 2031603, 1, 1, 2097139, 1, 1, 2162675, 1, 1, 2228211, 1, 1, 2293747, 1, 1, 2359283, 1, 1, 2424819, 1, 1, 2490355, 1, 1, 2555891, 1, 1, 2621427, 1, 1, 2686963, 1, 1, 2752499, 1, 1, 2818035, 1, 1, 1703924, 1, 1, 1769460, 1, 1, 1834996, 1, 1, 1900532, 1, 1, 1966068, 1, 1, 2031604, 1, 1, 2097140, 1, 1, 2162676, 1, 1, 2228212, 1, 1, 2293748, 1, 1, 2359284, 1, 1, 2424820, 1, 1, 2490356, 1, 1, 2555892, 1, 1, 2621428, 1, 1, 2686964, 1, 1, 2752500, 1, 1, 2818036, 1, 1, 1703925, 1, 1, 1769461, 1, 1, 1834997, 1, 1, 1900533, 1, 1, 1966069, 1, 1, 2031605, 1, 1, 2097141, 1, 1, 2162677, 1, 1, 2228213, 1, 1, 2293749, 1, 1, 2359285, 1, 1, 2424821, 1, 1, 2490357, 1, 1, 2555893, 1, 1, 2621429, 1, 1, 2686965, 1, 1, 2752501, 1, 1, 2818037, 1, 1, 1703926, 1, 1, 1769462, 1, 1, 1834998, 1, 1, 1900534, 1, 1, 1966070, 1, 1, 2031606, 1, 1, 2097142, 1, 1, 2162678, 1, 1, 2228214, 1, 1, 2293750, 1, 1, 2359286, 1, 1, 2424822, 1, 1, 2490358, 1, 1, 2555894, 1, 1, 2621430, 1, 1, 2686966, 1, 1, 2752502, 1, 1, 2818038, 1, 1, 1703927, 1, 1, 1769463, 1, 1, 1834999, 1, 1, 1900535, 1, 1, 1966071, 1, 1, 2031607, 1, 1, 2097143, 1, 1, 2162679, 1, 1, 2228215, 1, 1, 2293751, 1, 1, 2359287, 1, 1, 2424823, 1, 1, 2490359, 1, 1, 2555895, 1, 1, 2621431, 1, 1, 2686967, 1, 1, 2752503, 1, 1, 2818039, 1, 1, 1703928, 1, 1, 1769464, 1, 1, 1835000, 1, 1, 1900536, 1, 1, 1966072, 1, 1, 2031608, 1, 1, 2097144, 1, 1, 2162680, 1, 1, 2228216, 1, 1, 2293752, 1, 1, 2359288, 1, 1, 2424824, 1, 1, 2490360, 1, 1, 2555896, 1, 1, 2621432, 1, 1, 2686968, 1, 1, 2752504, 1, 1, 2818040, 1, 1, 1703929, 1, 1, 1769465, 1, 1, 1835001, 1, 1, 1900537, 1, 1, 1966073, 1, 1, 2031609, 1, 1, 2097145, 1, 1, 2162681, 1, 1, 2228217, 1, 1, 2293753, 1, 1, 2359289, 1, 1, 2424825, 1, 1, 2490361, 1, 1, 2555897, 1, 1, 2621433, 1, 1, 2686969, 1, 1, 2752505, 1, 1, 2818041, 1, 1, 1703930, 1, 1, 1769466, 1, 1, 1835002, 1, 1, 1900538, 1, 1, 1966074, 1, 1, 2031610, 1, 1, 2097146, 1, 1, 2162682, 1, 1, 2228218, 1, 1, 2293754, 1, 1, 2359290, 1, 1, 2818042, 1, 1, 1703931, 1, 1, 1769467, 1, 1, 1835003, 1, 1, 1900539, 1, 1, 1966075, 1, 1, 2031611, 1, 1, 2097147, 1, 1, 2162683, 1, 1, 2228219, 1, 1, 2293755, 1, 1, 2359291, 1, 1, 2818043, 1, 1, 1703932, 1, 1, 1769468, 1, 1, 1835004, 1, 1, 1900540, 1, 1, 1966076, 1, 1, 2031612, 1, 1, 2097148, 1, 1, 2162684, 1, 1, 2228220, 1, 1, 2293756, 1, 1, 2359292, 1, 1, 2818044, 1, 1, 1703933, 1, 1, 1769469, 1, 1, 1835005, 1, 1, 1900541, 1, 1, 1966077, 1, 1, 2031613, 1, 1, 2097149, 1, 1, 2162685, 1, 1, 2228221, 1, 1, 2293757, 1, 1, 2359293, 1, 1, 2818045, 1, 1, 1703934, 1, 1, 1769470, 1, 1, 1835006, 1, 1, 1900542, 1, 1, 1966078, 1, 1, 2031614, 1, 1, 2097150, 1, 1, 2162686, 1, 1, 2228222, 1, 1, 2293758, 1, 1, 2359294, 1, 1, 2818046, 1, 1, 1703935, 1, 1, 1769471, 1, 1, 1835007, 1, 1, 1900543, 1, 1, 1966079, 1, 1, 2031615, 1, 1, 2097151, 1, 1, 2162687, 1, 1, 2228223, 1, 1, 2293759, 1, 1, 2359295, 1, 1, 2818047, 1, 1, 1638400, 1, 1, 1703936, 1, 1, 1769472, 1, 1, 1835008, 1, 1, 1900544, 1, 1, 1966080, 1, 1, 2031616, 1, 1, 2097152, 1, 1, 2162688, 1, 1, 2228224, 1, 1, 2752512, 1, 1, 1638401, 1, 1, 1703937, 1, 1, 1769473, 1, 1, 1835009, 1, 1, 1900545, 1, 1, 1966081, 1, 1, 2031617, 1, 1, 2097153, 1, 1, 2162689, 1, 1, 2228225, 1, 1, 2752513, 1, 1, 1638402, 1, 1, 1703938, 1, 1, 1769474, 1, 1, 1835010, 1, 1, 1900546, 1, 1, 1966082, 1, 1, 2031618, 1, 1, 2097154, 1, 1, 2162690, 1, 1, 2228226, 1, 1, 2752514, 1, 1, 1638403, 1, 1, 1703939, 1, 1, 1769475, 1, 1, 1835011, 1, 1, 1900547, 1, 1, 1966083, 1, 1, 2031619, 1, 1, 2097155, 1, 1, 2162691, 1, 1, 2228227, 1, 1, 2752515, 1, 1, 1638404, 1, 1, 1703940, 1, 1, 1769476, 1, 1, 1835012, 1, 1, 1900548, 1, 1, 1966084, 1, 1, 2031620, 1, 1, 2097156, 1, 1, 2162692, 1, 1, 2228228, 1, 1, 2752516, 1, 1, 1638405, 1, 1, 1703941, 1, 1, 1769477, 1, 1, 1835013, 1, 1, 1900549, 1, 1, 1966085, 1, 1, 2031621, 1, 1, 2097157, 1, 1, 2162693, 1, 1, 2228229, 1, 1, 2752517, 1, 1, 1638406, 1, 1, 1703942, 1, 1, 1769478, 1, 1, 1835014, 1, 1, 1900550, 1, 1, 1966086, 1, 1, 2031622, 1, 1, 2097158, 1, 1, 2162694, 1, 1, 2228230, 1, 1, 2752518, 1, 1, 1638407, 1, 1, 1703943, 1, 1, 1769479, 1, 1, 1835015, 1, 1, 1900551, 1, 1, 1966087, 1, 1, 2031623, 1, 1, 2097159, 1, 1, 2162695, 1, 1, 2228231, 1, 1, 2752519, 1, 1, 1638408, 1, 1, 1703944, 1, 1, 1769480, 1, 1, 1835016, 1, 1, 1900552, 1, 1, 1966088, 1, 1, 2031624, 1, 1, 2097160, 1, 1, 2162696, 1, 1, 2228232, 1, 1, 2752520, 1, 1, 1638409, 1, 1, 1703945, 1, 1, 1769481, 1, 1, 1835017, 1, 1, 1900553, 1, 1, 1966089, 1, 1, 2031625, 1, 1, 2097161, 1, 1, 2162697, 1, 1, 2228233, 1, 1, 2752521, 1, 1, 1638410, 1, 1, 1703946, 1, 1, 1769482, 1, 1, 1835018, 1, 1, 1900554, 1, 1, 1966090, 1, 1, 2031626, 1, 1, 2097162, 1, 1, 2162698, 1, 1, 2228234, 1, 1, 2752522, 1, 1, 1638411, 1, 1, 1703947, 1, 1, 1769483, 1, 1, 1835019, 1, 1, 1900555, 1, 1, 1966091, 1, 1, 2031627, 1, 1, 2097163, 1, 1, 2162699, 1, 1, 2228235, 1, 1, 2752523, 1, 1, 1638412, 1, 1, 1703948, 1, 1, 1769484, 1, 1, 1835020, 1, 1, 1900556, 1, 1, 1966092, 1, 1, 2031628, 1, 1, 2097164, 1, 1, 2162700, 1, 1, 2228236, 1, 1, 2752524, 1, 1, 1638413, 1, 1, 1703949, 1, 1, 1769485, 1, 1, 1835021, 1, 1, 1900557, 1, 1, 1966093, 1, 1, 2031629, 1, 1, 2097165, 1, 1, 2162701, 1, 1, 2228237, 1, 1, 2752525, 1, 1, 1638414, 1, 1, 1703950, 1, 1, 1769486, 1, 1, 1835022, 1, 1, 1900558, 1, 1, 1966094, 1, 1, 2031630, 1, 1, 2097166, 1, 1, 2162702, 1, 1, 2228238, 1, 1, 2752526, 1, 1, 1638415, 1, 1, 1703951, 1, 1, 1769487, 1, 1, 1835023, 1, 1, 1900559, 1, 1, 1966095, 1, 1, 2031631, 1, 1, 2097167, 1, 1, 2162703, 1, 1, 2228239, 1, 1, 2752527, 1, 1, 1638416, 1, 1, 1703952, 1, 1, 1769488, 1, 1, 1835024, 1, 1, 1900560, 1, 1, 1966096, 1, 1, 2031632, 1, 1, 2097168, 1, 1, 2162704, 1, 1, 2228240, 1, 1, 2752528, 1, 1, 1638417, 1, 1, 1703953, 1, 1, 1769489, 1, 1, 1835025, 1, 1, 1900561, 1, 1, 1966097, 1, 1, 2031633, 1, 1, 2097169, 1, 1, 2162705, 1, 1, 2228241, 1, 1, 2752529, 1, 1, 1638418, 1, 1, 1703954, 1, 1, 1769490, 1, 1, 1835026, 1, 1, 1900562, 1, 1, 1966098, 1, 1, 2031634, 1, 1, 2097170, 1, 1, 2162706, 1, 1, 2228242, 1, 1, 2752530, 1, 1, 1638419, 1, 1, 1703955, 1, 1, 1769491, 1, 1, 1835027, 1, 1, 1900563, 1, 1, 1966099, 1, 1, 2031635, 1, 1, 2097171, 1, 1, 2162707, 1, 1, 2228243, 1, 1, 2752531, 1, 1, 1638420, 1, 1, 1703956, 1, 1, 1769492, 1, 1, 1835028, 1, 1, 1900564, 1, 1, 1966100, 1, 1, 2031636, 1, 1, 2097172, 1, 1, 2162708, 1, 1, 2228244, 1, 1, 2752532, 1, 1, 1638421, 1, 1, 1703957, 1, 1, 1769493, 1, 1, 1835029, 1, 1, 1900565, 1, 1, 1966101, 1, 1, 2031637, 1, 1, 2097173, 1, 1, 2162709, 1, 1, 2228245, 1, 1, 2752533, 1, 1, 1638422, 1, 1, 1703958, 1, 1, 1769494, 1, 1, 1835030, 1, 1, 1900566, 1, 1, 1966102, 1, 1, 2031638, 1, 1, 2097174, 1, 1, 2162710, 1, 1, 2228246, 1, 1, 2752534, 1, 1, 1638423, 1, 1, 1703959, 1, 1, 1769495, 1, 1, 1835031, 1, 1, 1900567, 1, 1, 1966103, 1, 1, 2031639, 1, 1, 2097175, 1, 1, 2162711, 1, 1, 2228247, 1, 1, 2752535, 1, 1, 1638424, 1, 1, 1703960, 1, 1, 1769496, 1, 1, 1835032, 1, 1, 1900568, 1, 1, 1966104, 1, 1, 2031640, 1, 1, 2097176, 1, 1, 2162712, 1, 1, 2228248, 1, 1, 2752536, 1, 1, 1638425, 1, 1, 1703961, 1, 1, 1769497, 1, 1, 1835033, 1, 1, 1900569, 1, 1, 1966105, 1, 1, 2031641, 1, 1, 2097177, 1, 1, 2162713, 1, 1, 2228249, 1, 1, 2752537, 1, 1, 1638426, 1, 1, 1703962, 1, 1, 1769498, 1, 1, 1835034, 1, 1, 1900570, 1, 1, 1966106, 1, 1, 2031642, 1, 1, 2097178, 1, 1, 2162714, 1, 1, 2228250, 1, 1, 2752538, 1, 1, 1638427, 1, 1, 1703963, 1, 1, 1769499, 1, 1, 1835035, 1, 1, 1900571, 1, 1, 1966107, 1, 1, 2031643, 1, 1, 2097179, 1, 1, 2162715, 1, 1, 2228251, 1, 1, 2752539, 1, 1, 1638428, 1, 1, 1703964, 1, 1, 1769500, 1, 1, 1835036, 1, 1, 1900572, 1, 1, 1966108, 1, 1, 2031644, 1, 1, 2097180, 1, 1, 2162716, 1, 1, 2228252, 1, 1, 2752540, 1, 1, 1638429, 1, 1, 1703965, 1, 1, 1769501, 1, 1, 1835037, 1, 1, 1900573, 1, 1, 1966109, 1, 1, 2031645, 1, 1, 2097181, 1, 1, 2162717, 1, 1, 2228253, 1, 1, 2752541, 1, 1, 1638430, 1, 1, 1703966, 1, 1, 1769502, 1, 1, 1835038, 1, 1, 1900574, 1, 1, 1966110, 1, 1, 2031646, 1, 1, 2097182, 1, 1, 2162718, 1, 1, 2228254, 1, 1, 2752542, 1, 1, 1638431, 1, 1, 1703967, 1, 1, 1769503, 1, 1, 1835039, 1, 1, 1900575, 1, 1, 1966111, 1, 1, 2031647, 1, 1, 2097183, 1, 1, 2162719, 1, 1, 2228255, 1, 1, 2752543, 1, 1, 1638432, 1, 1, 1703968, 1, 1, 1769504, 1, 1, 1835040, 1, 1, 1900576, 1, 1, 1966112, 1, 1, 2031648, 1, 1, 2097184, 1, 1, 2162720, 1, 1, 2228256, 1, 1, 2752544, 1, 1, 1245217, 131073, 0, 1310753, 1, 1, 1376289, 1, 1, 1441825, 1, 1, 1507361, 1, 1, 1572897, 1, 1, 1638433, 1, 1, 1703969, 1, 1, 1769505, 1, 1, 1835041, 1, 1, 1900577, 1, 1, 1966113, 1, 1, 2031649, 1, 1, 2097185, 1, 1, 2162721, 1, 1, 2228257, 1, 1, 2752545, 1, 1, 1245218, 131073, 0, 1310754, 1, 1, 1376290, 1, 1, 1441826, 1, 1, 1507362, 1, 1, 1572898, 1, 1, 1638434, 1, 1, 1703970, 1, 1, 1769506, 1, 1, 1835042, 1, 1, 1900578, 1, 1, 1966114, 1, 1, 2031650, 1, 1, 2097186, 1, 1, 2162722, 1, 1, 2228258, 1, 1, 2752546, 1, 1, 1245219, 131073, 0, 1310755, 1, 1, 1376291, 1, 1, 1441827, 1, 1, 1507363, 1, 1, 1572899, 1, 1, 1638435, 1, 1, 1703971, 1, 1, 1769507, 1, 1, 1835043, 1, 1, 1900579, 1, 1, 1966115, 1, 1, 2031651, 1, 1, 2097187, 1, 1, 2162723, 1, 1, 2228259, 1, 1, 2752547, 1, 1, 1245220, 131073, 0, 1310756, 1, 1, 1376292, 1, 1, 1441828, 1, 1, 1507364, 1, 1, 1572900, 1, 1, 1638436, 1, 1, 1703972, 1, 1, 1769508, 1, 1, 1835044, 1, 1, 1900580, 1, 1, 1966116, 1, 1, 2031652, 1, 1, 2097188, 1, 1, 2162724, 1, 1, 2228260, 1, 1, 2752548, 1, 1, 1245221, 131073, 0, 1310757, 1, 1, 1376293, 1, 1, 1441829, 1, 1, 1507365, 1, 1, 1572901, 1, 1, 1638437, 1, 1, 1703973, 1, 1, 1769509, 1, 1, 1835045, 1, 1, 1900581, 1, 1, 1966117, 1, 1, 2031653, 1, 1, 2097189, 1, 1, 2162725, 1, 1, 2228261, 1, 1, 2752549, 1, 1, 1245222, 131073, 0, 1310758, 1, 1, 1376294, 1, 1, 1441830, 1, 1, 1507366, 1, 1, 1572902, 1, 1, 1638438, 1, 1, 1703974, 1, 1, 1769510, 1, 1, 1835046, 1, 1, 1900582, 1, 1, 1966118, 1, 1, 2031654, 1, 1, 2097190, 1, 1, 2162726, 1, 1, 2228262, 1, 1, 2752550, 1, 1, 1245223, 131073, 0, 1310759, 1, 1, 1376295, 1, 1, 1441831, 1, 1, 1507367, 1, 1, 1572903, 1, 1, 1638439, 1, 1, 1703975, 1, 1, 1769511, 1, 1, 1835047, 1, 1, 1900583, 1, 1, 1966119, 1, 1, 2031655, 1, 1, 2097191, 1, 1, 2162727, 1, 1, 2228263, 1, 1, 2752551, 1, 1, 1245224, 131073, 0, 1310760, 1, 1, 1376296, 1, 1, 1441832, 1, 1, 1507368, 1, 1, 1572904, 1, 1, 1638440, 1, 1, 1703976, 1, 1, 1769512, 1, 1, 1835048, 1, 1, 1900584, 1, 1, 1966120, 1, 1, 2031656, 1, 1, 2097192, 1, 1, 2162728, 1, 1, 2228264, 1, 1, 2752552, 1, 1, 1245225, 1, 1, 1310761, 1, 1, 1376297, 1, 1, 1441833, 1, 1, 1507369, 1, 1, 1572905, 1, 1, 1638441, 1, 1, 1703977, 1, 1, 1769513, 1, 1, 1835049, 1, 1, 1900585, 1, 1, 1966121, 1, 1, 2031657, 1, 1, 2097193, 1, 1, 2162729, 1, 1, 2228265, 1, 1, 2752553, 1, 1, 1245226, 1, 1, 1310762, 1, 1, 1376298, 1, 1, 1441834, 1, 1, 1507370, 1, 1, 1572906, 1, 1, 1638442, 1, 1, 1703978, 1, 1, 1769514, 1, 1, 1835050, 1, 1, 1900586, 1, 1, 1966122, 1, 1, 2031658, 1, 1, 2097194, 1, 1, 2162730, 1, 1, 2228266, 1, 1, 2752554, 1, 1, 1245227, 1, 1, 1310763, 1, 1, 1376299, 1, 1, 1441835, 1, 1, 1507371, 1, 1, 1572907, 1, 1, 1638443, 1, 1, 1703979, 1, 1, 1769515, 1, 1, 1835051, 1, 1, 1900587, 1, 1, 1966123, 1, 1, 2031659, 1, 1, 2097195, 1, 1, 2162731, 1, 1, 2228267, 1, 1, 2752555, 1, 1, 1245228, 1, 1, 1310764, 1, 1, 1376300, 1, 1, 1441836, 1, 1, 1507372, 1, 1, 1572908, 1, 1, 1638444, 1, 1, 1703980, 1, 1, 1769516, 1, 1, 1835052, 1, 1, 1900588, 1, 1, 1966124, 1, 1, 2031660, 1, 1, 2097196, 1, 1, 2162732, 1, 1, 2228268, 1, 1, 2752556, 1, 1, 1245229, 1, 1, 1310765, 1, 1, 1376301, 1, 1, 1441837, 1, 1, 1507373, 1, 1, 1572909, 1, 1, 1638445, 1, 1, 1703981, 1, 1, 1769517, 1, 1, 1835053, 1, 1, 1900589, 1, 1, 1966125, 1, 1, 2031661, 1, 1, 2097197, 1, 1, 2162733, 1, 1, 2228269, 1, 1, 2752557, 1, 1, 1245230, 1, 1, 1310766, 1, 1, 1376302, 1, 1, 1441838, 1, 1, 1507374, 1, 1, 1572910, 1, 1, 1638446, 1, 1, 1703982, 1, 1, 1769518, 1, 1, 1835054, 1, 1, 1900590, 1, 1, 1966126, 1, 1, 2031662, 1, 1, 2097198, 1, 1, 2162734, 1, 1, 2228270, 1, 1, 2752558, 1, 1, 1245231, 1, 1, 1310767, 1, 1, 1376303, 1, 1, 1441839, 1, 1, 1507375, 1, 1, 1572911, 1, 1, 1638447, 1, 1, 1703983, 1, 1, 1769519, 1, 1, 1835055, 1, 1, 1900591, 1, 1, 1966127, 1, 1, 2031663, 1, 1, 2097199, 1, 1, 2162735, 1, 1, 2228271, 1, 1, 2752559, 1, 1, 1245232, 1, 1, 1310768, 1, 1, 1376304, 1, 1, 1441840, 1, 1, 1507376, 1, 1, 1572912, 1, 1, 1638448, 1, 1, 1703984, 1, 1, 1769520, 1, 1, 1835056, 1, 1, 1900592, 1, 1, 1966128, 1, 1, 2031664, 1, 1, 2097200, 1, 1, 2162736, 1, 1, 2228272, 1, 1, 2752560, 1, 1, 1245233, 1, 1, 1310769, 1, 1, 1376305, 1, 1, 1441841, 1, 1, 1507377, 1, 1, 1572913, 1, 1, 1638449, 1, 1, 1703985, 1, 1, 1769521, 1, 1, 1835057, 1, 1, 1900593, 1, 1, 1966129, 1, 1, 2031665, 1, 1, 2097201, 1, 1, 2162737, 1, 1, 2228273, 1, 1, 2752561, 1, 1, 1245234, 1, 1, 1310770, 1, 1, 1376306, 1, 1, 1441842, 1, 1, 1507378, 1, 1, 1572914, 1, 1, 1638450, 1, 1, 1703986, 1, 1, 1769522, 1, 1, 1835058, 1, 1, 1900594, 1, 1, 1966130, 1, 1, 2031666, 1, 1, 2097202, 1, 1, 2162738, 1, 1, 2228274, 1, 1, 2752562, 1, 1, 1245235, 1, 1, 1310771, 1, 1, 1376307, 1, 1, 1441843, 1, 1, 1507379, 1, 1, 1572915, 1, 1, 1638451, 1, 1, 1703987, 1, 1, 1769523, 1, 1, 1835059, 1, 1, 1900595, 1, 1, 1966131, 1, 1, 2031667, 1, 1, 2097203, 1, 1, 2162739, 1, 1, 2228275, 1, 1, 2752563, 1, 1, 1245236, 1, 1, 1310772, 1, 1, 1376308, 1, 1, 1441844, 1, 1, 1507380, 1, 1, 1572916, 1, 1, 1638452, 1, 1, 1703988, 1, 1, 1769524, 1, 1, 1835060, 1, 1, 1900596, 1, 1, 1966132, 1, 1, 2031668, 1, 1, 2097204, 1, 1, 2162740, 1, 1, 2228276, 1, 1, 2752564, 1, 1, 1245237, 1, 1, 1310773, 1, 1, 1376309, 1, 1, 1441845, 1, 1, 1507381, 1, 1, 1572917, 1, 1, 1638453, 1, 1, 1703989, 1, 1, 1769525, 1, 1, 1835061, 1, 1, 1900597, 1, 1, 1966133, 1, 1, 2031669, 1, 1, 2097205, 1, 1, 2162741, 1, 1, 2228277, 1, 1, 2752565, 1, 1, 1245238, 1, 1, 1310774, 1, 1, 1376310, 1, 1, 1441846, 1, 1, 1507382, 1, 1, 1572918, 1, 1, 1638454, 1, 1, 1703990, 1, 1, 1769526, 1, 1, 1835062, 1, 1, 1900598, 1, 1, 1966134, 1, 1, 2031670, 1, 1, 2097206, 1, 1, 2162742, 1, 1, 2228278, 1, 1, 2752566, 1, 1, 1245239, 1, 1, 1310775, 1, 1, 1376311, 1, 1, 1441847, 1, 1, 1507383, 1, 1, 1572919, 1, 1, 1638455, 1, 1, 1703991, 1, 1, 1769527, 1, 1, 1835063, 1, 1, 1900599, 1, 1, 1966135, 1, 1, 2031671, 1, 1, 2097207, 1, 1, 2162743, 1, 1, 2228279, 1, 1, 2752567, 1, 1, 1245240, 1, 1, 1310776, 1, 1, 1376312, 1, 1, 1441848, 1, 1, 1507384, 1, 1, 1572920, 1, 1, 1638456, 1, 1, 1703992, 1, 1, 1769528, 1, 1, 1835064, 1, 1, 1900600, 1, 1, 1966136, 1, 1, 2031672, 1, 1, 2097208, 1, 1, 2162744, 1, 1, 2228280, 1, 1, 2752568, 1, 1, 1245241, 1, 1, 1310777, 1, 1, 1376313, 1, 1, 1441849, 1, 1, 1507385, 1, 1, 1572921, 1, 1, 1638457, 1, 1, 1703993, 1, 1, 1769529, 1, 1, 1835065, 1, 1, 1900601, 1, 1, 1966137, 1, 1, 2031673, 1, 1, 2097209, 1, 1, 2162745, 1, 1, 2228281, 1, 1, 2752569, 1, 1, 1245242, 1, 1, 1310778, 1, 1, 1376314, 1, 1, 1441850, 1, 1, 1507386, 1, 1, 1572922, 1, 1, 1638458, 1, 1, 1703994, 1, 1, 1769530, 1, 1, 1835066, 1, 1, 1900602, 1, 1, 1966138, 1, 1, 2031674, 1, 1, 2097210, 1, 1, 2162746, 1, 1, 2228282, 1, 1, 2752570, 1, 1, 1245243, 1, 1, 1310779, 1, 1, 1376315, 1, 1, 1441851, 1, 1, 1507387, 1, 1, 1572923, 1, 1, 1638459, 1, 1, 1703995, 1, 1, 1769531, 1, 1, 1835067, 1, 1, 1900603, 1, 1, 1966139, 1, 1, 2031675, 1, 1, 2097211, 1, 1, 2162747, 1, 1, 2228283, 1, 1, 2752571, 1, 1, 1245244, 1, 1, 1310780, 1, 1, 1376316, 1, 1, 1441852, 1, 1, 1507388, 1, 1, 1572924, 1, 1, 1638460, 1, 1, 1703996, 1, 1, 1769532, 1, 1, 1835068, 1, 1, 1900604, 1, 1, 1966140, 1, 1, 2031676, 1, 1, 2097212, 1, 1, 2162748, 1, 1, 2228284, 1, 1, 2752572, 1, 1, 1245245, 1, 1, 1310781, 1, 1, 1376317, 1, 1, 1441853, 1, 1, 1507389, 1, 1, 1572925, 1, 1, 1638461, 1, 1, 1703997, 1, 1, 1769533, 1, 1, 1835069, 1, 1, 1900605, 1, 1, 1966141, 1, 1, 2031677, 1, 1, 2097213, 1, 1, 2162749, 1, 1, 2228285, 1, 1, 2752573, 1, 1, 1245246, 1, 1, 1310782, 1, 1, 1376318, 1, 1, 1441854, 1, 1, 1507390, 1, 1, 1572926, 1, 1, 1638462, 1, 1, 1703998, 1, 1, 1769534, 1, 1, 1835070, 1, 1, 1900606, 1, 1, 1966142, 1, 1, 2031678, 1, 1, 2097214, 1, 1, 2162750, 1, 1, 2228286, 1, 1, 2752574, 1, 1, 1245247, 1, 1, 1310783, 1, 1, 1376319, 1, 1, 1441855, 1, 1, 1507391, 1, 1, 1572927, 1, 1, 1638463, 1, 1, 1703999, 1, 1, 1769535, 1, 1, 1835071, 1, 1, 1900607, 1, 1, 1966143, 1, 1, 2031679, 1, 1, 2097215, 1, 1, 2162751, 1, 1, 2228287, 1, 1, 2752575, 1, 1, 1245248, 1, 1, 1310784, 1, 1, 1376320, 1, 1, 1441856, 1, 1, 1507392, 1, 1, 1572928, 1, 1, 1638464, 1, 1, 1704000, 1, 1, 1769536, 1, 1, 1835072, 1, 1, 1900608, 1, 1, 1966144, 1, 1, 2031680, 1, 1, 2097216, 1, 1, 2162752, 1, 1, 2228288, 1, 1, 2752576, 1, 1, 1245249, 1, 1, 1310785, 1, 1, 1376321, 1, 1, 1441857, 1, 1, 1507393, 1, 1, 1572929, 1, 1, 1638465, 1, 1, 1704001, 1, 1, 1769537, 1, 1, 1835073, 1, 1, 1900609, 1, 1, 1966145, 1, 1, 2031681, 1, 1, 2097217, 1, 1, 2162753, 1, 1, 2228289, 1, 1, 2752577, 1, 1, 1245250, 1, 1, 1310786, 1, 1, 1376322, 1, 1, 1441858, 1, 1, 1507394, 1, 1, 1572930, 1, 1, 1638466, 1, 1, 1704002, 1, 1, 1769538, 1, 1, 1835074, 1, 1, 1900610, 1, 1, 1966146, 1, 1, 2031682, 1, 1, 2097218, 1, 1, 2162754, 1, 1, 2228290, 1, 1, 2752578, 1, 1, 1245251, 1, 1, 1310787, 1, 1, 1376323, 1, 1, 1441859, 1, 1, 1507395, 1, 1, 1572931, 1, 1, 1638467, 1, 1, 1704003, 1, 1, 1769539, 1, 1, 1835075, 1, 1, 1900611, 1, 1, 1966147, 1, 1, 2031683, 1, 1, 2097219, 1, 1, 2162755, 1, 1, 2228291, 1, 1, 2752579, 1, 1, 1245252, 1, 1, 1310788, 1, 1, 1376324, 1, 1, 1441860, 1, 1, 1507396, 1, 1, 1572932, 1, 1, 1638468, 1, 1, 1704004, 1, 1, 1769540, 1, 1, 1835076, 1, 1, 1900612, 1, 1, 1966148, 1, 1, 2031684, 1, 1, 2097220, 1, 1, 2162756, 1, 1, 2228292, 1, 1, 2752580, 1, 1, 1245253, 1, 1, 1310789, 1, 1, 1376325, 1, 1, 1441861, 1, 1, 1507397, 1, 1, 1572933, 1, 1, 1638469, 1, 1, 1704005, 1, 1, 1769541, 1, 1, 1835077, 1, 1, 1900613, 1, 1, 1966149, 1, 1, 2031685, 1, 1, 2097221, 1, 1, 2162757, 1, 1, 2228293, 1, 1, 2752581, 1, 1, 1245254, 1, 1, 1310790, 1, 1, 1376326, 1, 1, 1441862, 1, 1, 1507398, 1, 1, 1572934, 1, 1, 1638470, 1, 1, 1704006, 1, 1, 1769542, 1, 1, 1835078, 1, 1, 1900614, 1, 1, 1966150, 1, 1, 2031686, 1, 1, 2097222, 1, 1, 2162758, 1, 1, 2228294, 1, 1, 2752582, 1, 1, 1245255, 1, 1, 1310791, 1, 1, 1376327, 1, 1, 1441863, 1, 1, 1507399, 1, 1, 1572935, 1, 1, 1638471, 1, 1, 1704007, 1, 1, 1769543, 1, 1, 1835079, 1, 1, 1900615, 1, 1, 1966151, 1, 1, 2031687, 1, 1, 2097223, 1, 1, 2162759, 1, 1, 2228295, 1, 1, 2752583, 1, 1, 1245256, 1, 1, 1310792, 1, 1, 1376328, 1, 1, 1441864, 1, 1, 1507400, 1, 1, 1572936, 1, 1, 1638472, 1, 1, 1704008, 1, 1, 1769544, 1, 1, 1835080, 1, 1, 1900616, 1, 1, 1966152, 1, 1, 2031688, 1, 1, 2097224, 1, 1, 2162760, 1, 1, 2228296, 1, 1, 2293832, 1, 1, 2752584, 1, 1, 1245257, 1, 1, 1310793, 1, 1, 1376329, 1, 1, 1441865, 1, 1, 1507401, 1, 1, 1572937, 1, 1, 1638473, 1, 1, 1704009, 1, 1, 1769545, 1, 1, 1835081, 1, 1, 1900617, 1, 1, 1966153, 1, 1, 2031689, 1, 1, 2097225, 1, 1, 2162761, 1, 1, 2228297, 1, 1, 2293833, 1, 1, 2752585, 1, 1, 1245258, 1, 1, 1310794, 1, 1, 1376330, 1, 1, 1441866, 1, 1, 1507402, 1, 1, 1572938, 1, 1, 1638474, 1, 1, 1704010, 1, 1, 1769546, 1, 1, 1835082, 1, 1, 1900618, 1, 1, 1966154, 1, 1, 2031690, 1, 1, 2097226, 1, 1, 2162762, 1, 1, 2228298, 1, 1, 2293834, 1, 1, 2752586, 1, 1, 1245259, 1, 1, 1310795, 1, 1, 1376331, 1, 1, 1441867, 1, 1, 1507403, 1, 1, 1572939, 1, 1, 1638475, 1, 1, 1704011, 1, 1, 1769547, 1, 1, 1835083, 1, 1, 1900619, 1, 1, 1966155, 1, 1, 2031691, 1, 1, 2097227, 1, 1, 2162763, 1, 1, 2228299, 1, 1, 2293835, 1, 1, 2359371, 1, 1, 2424907, 1, 1, 2490443, 1, 1, 2555979, 1, 1, 2621515, 1, 1, 2687051, 1, 1, 2752587, 1, 1, 1245260, 1, 1, 1310796, 1, 1, 1376332, 1, 1, 1441868, 1, 1, 1507404, 1, 1, 1572940, 1, 1, 1638476, 1, 1, 1704012, 1, 1, 1769548, 1, 1, 1835084, 1, 1, 1900620, 1, 1, 1966156, 1, 1, 2031692, 1, 1, 2097228, 1, 1, 2162764, 1, 1, 2228300, 1, 1, 2293836, 1, 1, 2359372, 1, 1, 2424908, 1, 1, 2490444, 1, 1, 2555980, 1, 1, 2621516, 1, 1, 2687052, 1, 1, 2752588, 1, 1, 1245261, 1, 1, 1310797, 1, 1, 1376333, 1, 1, 1441869, 1, 1, 1507405, 1, 1, 1572941, 1, 1, 1638477, 1, 1, 1704013, 1, 1, 1769549, 1, 1, 1835085, 1, 1, 1900621, 1, 1, 1966157, 1, 1, 2031693, 1, 1, 2097229, 1, 1, 2162765, 1, 1, 2228301, 1, 1, 2293837, 1, 1, 2359373, 1, 1, 2424909, 1, 1, 2490445, 1, 1, 2555981, 1, 1, 2621517, 1, 1, 2687053, 1, 1, 2752589, 1, 1, 1245262, 1, 1, 1310798, 1, 1, 1376334, 1, 1, 1441870, 1, 1, 1507406, 1, 1, 1572942, 1, 1, 1638478, 1, 1, 1704014, 1, 1, 1769550, 1, 1, 1835086, 1, 1, 1900622, 1, 1, 1966158, 1, 1, 2031694, 1, 1, 2097230, 1, 1, 2162766, 1, 1, 2228302, 1, 1, 2293838, 1, 1, 2359374, 1, 1, 2424910, 1, 1, 2490446, 1, 1, 2555982, 1, 1, 2621518, 1, 1, 2687054, 1, 1, 2752590, 1, 1, 1245263, 1, 1, 1310799, 1, 1, 1376335, 1, 1, 1441871, 1, 1, 1507407, 1, 1, 1572943, 1, 1, 1638479, 1, 1, 1704015, 1, 1, 1769551, 1, 1, 1835087, 1, 1, 1900623, 1, 1, 1966159, 1, 1, 2031695, 1, 1, 2097231, 1, 1, 2162767, 1, 1, 2228303, 1, 1, 2293839, 1, 1, 2359375, 1, 1, 2424911, 1, 1, 2490447, 1, 1, 2555983, 1, 1, 2621519, 1, 1, 2687055, 1, 1, 2752591, 1, 1, 1245264, 1, 1, 1310800, 1, 1, 1376336, 1, 1, 1441872, 1, 1, 1507408, 1, 1, 1572944, 1, 1, 1638480, 1, 1, 1704016, 1, 1, 1769552, 1, 1, 1835088, 1, 1, 1900624, 1, 1, 1966160, 1, 1, 2031696, 1, 1, 2097232, 1, 1, 2162768, 1, 1, 2228304, 1, 1, 2293840, 1, 1, 2359376, 1, 1, 2424912, 1, 1, 2490448, 1, 1, 2555984, 1, 1, 2621520, 1, 1, 2687056, 1, 1, 2752592, 1, 1, 1245265, 1, 1, 1310801, 1, 1, 1376337, 1, 1, 1441873, 1, 1, 1507409, 1, 1, 1572945, 1, 1, 1638481, 1, 1, 1704017, 1, 1, 1769553, 1, 1, 1835089, 1, 1, 1900625, 1, 1, 1966161, 1, 1, 2031697, 1, 1, 2097233, 1, 1, 2162769, 1, 1, 2228305, 1, 1, 2293841, 1, 1, 2359377, 1, 1, 2424913, 1, 1, 2490449, 1, 1, 2555985, 1, 1, 2621521, 1, 1, 2687057, 1, 1, 2752593, 1, 1, 1245266, 1, 1, 1310802, 1, 1, 1376338, 1, 1, 1441874, 1, 1, 1507410, 1, 1, 1572946, 1, 1, 1638482, 1, 1, 1704018, 1, 1, 1769554, 1, 1, 1835090, 1, 1, 1900626, 1, 1, 1966162, 1, 1, 2031698, 1, 1, 2097234, 1, 1, 2162770, 1, 1, 2228306, 1, 1, 2293842, 1, 1, 2359378, 1, 1, 2424914, 1, 1, 2490450, 1, 1, 2555986, 1, 1, 2621522, 1, 1, 2687058, 1, 1, 2752594, 1, 1, 1245267, 1, 1, 1310803, 1, 1, 1376339, 1, 1, 1441875, 1, 1, 1507411, 1, 1, 1572947, 1, 1, 1638483, 1, 1, 1704019, 1, 1, 1769555, 1, 1, 1835091, 1, 1, 1900627, 1, 1, 1966163, 1, 1, 2031699, 1, 1, 2097235, 1, 1, 2162771, 1, 1, 2228307, 1, 1, 2293843, 1, 1, 2359379, 1, 1, 2424915, 1, 1, 2490451, 1, 1, 2555987, 1, 1, 2621523, 1, 1, 2687059, 1, 1, 2752595, 1, 1, 1245268, 1, 1, 1310804, 1, 1, 1376340, 1, 1, 1441876, 1, 1, 1507412, 1, 1, 1572948, 1, 1, 1638484, 1, 1, 1704020, 1, 1, 1769556, 1, 1, 1835092, 1, 1, 1900628, 1, 1, 1966164, 1, 1, 2031700, 1, 1, 2097236, 1, 1, 2162772, 1, 1, 2228308, 1, 1, 2293844, 1, 1, 2359380, 1, 1, 2424916, 1, 1, 2490452, 1, 1, 2555988, 1, 1, 2621524, 1, 1, 2687060, 1, 1, 2752596, 1, 1, 1245269, 1, 1, 1310805, 1, 1, 1376341, 1, 1, 1441877, 1, 1, 1507413, 1, 1, 1572949, 1, 1, 1638485, 1, 1, 1704021, 1, 1, 1769557, 1, 1, 1835093, 1, 1, 1900629, 1, 1, 1966165, 1, 1, 2031701, 1, 1, 2097237, 1, 1, 2162773, 1, 1, 2228309, 1, 1, 2293845, 1, 1, 2359381, 1, 1, 2424917, 1, 1, 2490453, 1, 1, 2555989, 1, 1, 2621525, 1, 1, 2687061, 1, 1, 2752597, 1, 1, 1245270, 1, 1, 1310806, 1, 1, 1376342, 1, 1, 1441878, 1, 1, 1507414, 1, 1, 1572950, 1, 1, 1638486, 1, 1, 1704022, 1, 1, 1769558, 1, 1, 1835094, 1, 1, 1900630, 1, 1, 1966166, 1, 1, 2031702, 1, 1, 2097238, 1, 1, 2162774, 1, 1, 2228310, 1, 1, 2293846, 1, 1, 2359382, 1, 1, 2424918, 1, 1, 2490454, 1, 1, 2555990, 1, 1, 2621526, 1, 1, 2687062, 1, 1, 2752598, 1, 1, 1245271, 1, 1, 1310807, 1, 1, 1376343, 1, 1, 1441879, 1, 1, 1507415, 1, 1, 1572951, 1, 1, 1638487, 1, 1, 1704023, 1, 1, 1769559, 1, 1, 1835095, 1, 1, 1900631, 1, 1, 1966167, 1, 1, 2031703, 1, 1, 2097239, 1, 1, 2162775, 1, 1, 2228311, 1, 1, 2293847, 1, 1, 2359383, 1, 1, 2424919, 1, 1, 2490455, 1, 1, 2555991, 1, 1, 2621527, 1, 1, 2687063, 1, 1, 2752599, 1, 1, 1245272, 1, 1, 1310808, 1, 1, 1376344, 1, 1, 1441880, 1, 1, 1507416, 1, 1, 1572952, 1, 1, 1638488, 1, 1, 1704024, 1, 1, 1769560, 1, 1, 1835096, 1, 1, 1900632, 1, 1, 1966168, 1, 1, 2031704, 1, 1, 2097240, 1, 1, 2162776, 1, 1, 2228312, 1, 1, 2293848, 1, 1, 2359384, 1, 1, 2424920, 1, 1, 2490456, 1, 1, 2555992, 1, 1, 2621528, 1, 1, 2687064, 1, 1, 2752600, 1, 1, 1245273, 1, 1, 1310809, 1, 1, 1376345, 1, 1, 1441881, 1, 1, 1507417, 1, 1, 1572953, 1, 1, 1638489, 1, 1, 1704025, 1, 1, 1769561, 1, 1, 1835097, 1, 1, 1900633, 1, 1, 1966169, 1, 1, 2031705, 1, 1, 2097241, 1, 1, 2162777, 1, 1, 2228313, 1, 1, 2293849, 1, 1, 2359385, 1, 1, 2424921, 1, 1, 2490457, 1, 1, 2555993, 1, 1, 2621529, 1, 1, 2687065, 1, 1, 2752601, 1, 1, 1245274, 1, 1, 1310810, 1, 1, 1376346, 1, 1, 1441882, 1, 1, 1507418, 1, 1, 1572954, 1, 1, 1638490, 1, 1, 1704026, 1, 1, 1769562, 1, 1, 1835098, 1, 1, 1900634, 1, 1, 1966170, 1, 1, 2031706, 1, 1, 2097242, 1, 1, 2162778, 1, 1, 2228314, 1, 1, 2293850, 1, 1, 2359386, 1, 1, 2424922, 1, 1, 2490458, 1, 1, 2555994, 1, 1, 2621530, 1, 1, 2687066, 1, 1, 2752602, 1, 1, 1245275, 1, 1, 1310811, 1, 1, 1376347, 1, 1, 1441883, 1, 1, 1507419, 1, 1, 1572955, 1, 1, 1638491, 1, 1, 1704027, 1, 1, 1769563, 1, 1, 1835099, 1, 1, 1900635, 1, 1, 1966171, 1, 1, 2031707, 1, 1, 2097243, 1, 1, 2162779, 1, 1, 2228315, 1, 1, 2293851, 1, 1, 2359387, 1, 1, 2424923, 1, 1, 2490459, 1, 1, 2555995, 1, 1, 2621531, 1, 1, 2687067, 1, 1, 2752603, 1, 1, 1245276, 1, 1, 1310812, 1, 1, 1376348, 1, 1, 1441884, 1, 1, 1507420, 1, 1, 1572956, 1, 1, 1638492, 1, 1, 1704028, 1, 1, 1769564, 1, 1, 1835100, 1, 1, 1900636, 1, 1, 1966172, 1, 1, 2031708, 1, 1, 2097244, 1, 1, 2162780, 1, 1, 2228316, 1, 1, 2293852, 1, 1, 2359388, 1, 1, 2424924, 1, 1, 2490460, 1, 1, 2555996, 1, 1, 2621532, 1, 1, 2687068, 1, 1, 2752604, 1, 1, 1245277, 1, 1, 1310813, 1, 1, 1376349, 1, 1, 1441885, 1, 1, 1507421, 1, 1, 1572957, 1, 1, 1638493, 1, 1, 1704029, 1, 1, 1769565, 1, 1, 1835101, 1, 1, 1900637, 1, 1, 1966173, 1, 1, 2031709, 1, 1, 2097245, 1, 1, 2162781, 1, 1, 2228317, 1, 1, 2293853, 1, 1, 2359389, 1, 1, 2424925, 1, 1, 2490461, 1, 1, 2555997, 1, 1, 2621533, 1, 1, 2687069, 1, 1, 2752605, 1, 1, 1245278, 1, 1, 1310814, 1, 1, 1376350, 1, 1, 1441886, 1, 1, 1507422, 1, 1, 1572958, 1, 1, 1638494, 1, 1, 1704030, 1, 1, 1769566, 1, 1, 1835102, 1, 1, 1900638, 1, 1, 1966174, 1, 1, 2031710, 1, 1, 2097246, 1, 1, 2162782, 1, 1, 2228318, 1, 1, 2293854, 1, 1, 2359390, 1, 1, 2424926, 1, 1, 2490462, 1, 1, 2555998, 1, 1, 2621534, 1, 1, 2687070, 1, 1, 2752606, 1, 1, 1245279, 1, 1, 1310815, 1, 1, 1376351, 1, 1, 1441887, 1, 1, 1507423, 1, 1, 1572959, 1, 1, 1638495, 1, 1, 1704031, 1, 1, 1769567, 1, 1, 1835103, 1, 1, 1900639, 1, 1, 1966175, 1, 1, 2031711, 1, 1, 2097247, 1, 1, 2162783, 1, 1, 2228319, 1, 1, 2293855, 1, 1, 2359391, 1, 1, 2424927, 1, 1, 2490463, 1, 1, 2555999, 1, 1, 2621535, 1, 1, 2687071, 1, 1, 2752607, 1, 1, 1245280, 1, 1, 1310816, 1, 1, 1376352, 1, 1, 1441888, 1, 1, 1507424, 1, 1, 1572960, 1, 1, 1638496, 1, 1, 1704032, 1, 1, 1769568, 1, 1, 1835104, 1, 1, 1900640, 1, 1, 1966176, 1, 1, 2031712, 1, 1, 2097248, 1, 1, 2162784, 1, 1, 2228320, 1, 1, 2293856, 1, 1, 2359392, 1, 1, 2424928, 1, 1, 2490464, 1, 1, 2556000, 1, 1, 2621536, 1, 1, 2687072, 1, 1, 2752608, 1, 1, 1245281, 1, 1, 1310817, 1, 1, 1376353, 1, 1, 1441889, 1, 1, 1507425, 1, 1, 1572961, 1, 1, 1638497, 1, 1, 1704033, 1, 1, 1769569, 1, 1, 1835105, 1, 1, 1900641, 1, 1, 1966177, 1, 1, 2031713, 1, 1, 2097249, 1, 1, 2162785, 1, 1, 2228321, 1, 1, 2293857, 1, 1, 2359393, 1, 1, 2424929, 1, 1, 2490465, 1, 1, 2556001, 1, 1, 2621537, 1, 1, 2687073, 1, 1, 2752609, 1, 1, 1245282, 1, 1, 1310818, 1, 1, 1376354, 1, 1, 1441890, 1, 1, 1507426, 1, 1, 1572962, 1, 1, 1638498, 1, 1, 1704034, 1, 1, 1769570, 1, 1, 1835106, 1, 1, 1900642, 1, 1, 1966178, 1, 1, 2031714, 1, 1, 2097250, 1, 1, 2162786, 1, 1, 2228322, 1, 1, 2293858, 1, 1, 2359394, 1, 1, 2424930, 1, 1, 2490466, 1, 1, 2556002, 1, 1, 2621538, 1, 1, 2687074, 1, 1, 2752610, 1, 1, 1245283, 1, 1, 1310819, 1, 1, 1376355, 1, 1, 1441891, 1, 1, 1507427, 1, 1, 1572963, 1, 1, 1638499, 1, 1, 1704035, 1, 1, 1769571, 1, 1, 1835107, 1, 1, 1900643, 1, 1, 1966179, 1, 1, 2031715, 1, 1, 2097251, 1, 1, 2162787, 1, 1, 2228323, 1, 1, 2293859, 1, 1, 2359395, 1, 1, 2424931, 1, 1, 2490467, 1, 1, 2556003, 1, 1, 2621539, 1, 1, 2687075, 1, 1, 2752611, 1, 1, 1245284, 1, 1, 1310820, 1, 1, 1376356, 1, 1, 1441892, 1, 1, 1507428, 1, 1, 1572964, 1, 1, 1638500, 1, 1, 1704036, 1, 1, 1769572, 1, 1, 1835108, 1, 1, 1900644, 1, 1, 1966180, 1, 1, 2031716, 1, 1, 2097252, 1, 1, 2162788, 1, 1, 2228324, 1, 1, 2293860, 1, 1, 2359396, 1, 1, 2424932, 1, 1, 2490468, 1, 1, 2556004, 1, 1, 2621540, 1, 1, 2687076, 1, 1, 2752612, 1, 1, 1245285, 1, 1, 1310821, 1, 1, 1376357, 1, 1, 1441893, 1, 1, 1507429, 1, 1, 1572965, 1, 1, 1638501, 1, 1, 1704037, 1, 1, 1769573, 1, 1, 1835109, 1, 1, 1900645, 1, 1, 1966181, 1, 1, 2031717, 1, 1, 2097253, 1, 1, 2162789, 1, 1, 2228325, 1, 1, 2293861, 1, 1, 2359397, 1, 1, 2424933, 1, 1, 2490469, 1, 1, 2556005, 1, 1, 2621541, 1, 1, 2687077, 1, 1, 2752613, 1, 1, 1245286, 1, 1, 1310822, 1, 1, 1376358, 1, 1, 1441894, 1, 1, 1507430, 1, 1, 1572966, 1, 1, 1638502, 1, 1, 1704038, 1, 1, 1769574, 1, 1, 1835110, 1, 1, 1900646, 1, 1, 1966182, 1, 1, 2031718, 1, 1, 2097254, 1, 1, 2162790, 1, 1, 2228326, 1, 1, 2293862, 1, 1, 2359398, 1, 1, 2424934, 1, 1, 2490470, 1, 1, 2556006, 1, 1, 2621542, 1, 1, 2687078, 1, 1, 2752614, 1, 1, 1245287, 1, 1, 1310823, 1, 1, 1376359, 1, 1, 1441895, 1, 1, 1507431, 1, 1, 1572967, 1, 1, 1638503, 1, 1, 1704039, 1, 1, 1769575, 1, 1, 1835111, 1, 1, 1900647, 1, 1, 1966183, 1, 1, 2031719, 1, 1, 2097255, 1, 1, 2162791, 1, 1, 2228327, 1, 1, 2293863, 1, 1, 2359399, 1, 1, 2424935, 1, 1, 2490471, 1, 1, 2556007, 1, 1, 2621543, 1, 1, 2687079, 1, 1, 2752615, 1, 1, 851956, 131073, 0, 917492, 1, 1, 983028, 1, 1, 1048564, 1, 1, 1114100, 1, 1, 1179636, 1, 1, 851957, 131073, 0, 917493, 1, 1, 983029, 1, 1, 1048565, 1, 1, 1114101, 1, 1, 1179637, 1, 1, 851958, 131073, 0, 917494, 1, 1, 983030, 1, 1, 1048566, 1, 1, 1114102, 1, 1, 1179638, 1, 1, 851959, 131073, 0, 917495, 1, 1, 983031, 1, 1, 1048567, 1, 1, 1114103, 1, 1, 1179639, 1, 1, 851960, 131073, 0, 917496, 1, 1, 983032, 1, 1, 1048568, 1, 1, 1114104, 1, 1, 1179640, 1, 1, 851961, 131073, 0, 917497, 1, 1, 983033, 1, 1, 1048569, 1, 1, 1114105, 1, 1, 1179641, 1, 1, 851962, 131073, 0, 917498, 1, 1, 983034, 1, 1, 1048570, 1, 1, 1114106, 1, 1, 1179642, 1, 1, 851963, 131073, 0, 917499, 1, 1, 983035, 1, 1, 1048571, 1, 1, 1114107, 1, 1, 1179643, 1, 1, 851964, 131073, 0, 917500, 1, 1, 983036, 1, 1, 1048572, 1, 1, 1114108, 1, 1, 1179644, 1, 1, 851965, 131073, 0, 917501, 1, 1, 983037, 1, 1, 1048573, 1, 1, 1114109, 1, 1, 1179645, 1, 1, 851966, 131073, 0, 917502, 1, 1, 983038, 1, 1, 1048574, 1, 1, 1114110, 1, 1, 1179646, 1, 1, 851967, 1, 1, 917503, 1, 1, 983039, 1, 1, 1048575, 1, 1, 1114111, 1, 1, 1179647, 1, 1, 786432, 65537, 0, 851968, 65537, 0, 917504, 65537, 0, 983040, 65537, 0, 1048576, 65537, 0, 1114112, 65537, 0, 786433, 1, 1, 851969, 1, 1, 917505, 1, 1, 983041, 1, 1, 1048577, 65537, 0, 1114113, 65537, 0, 786434, 65537, 0, 851970, 65537, 0, 917506, 65537, 0, 983042, 65537, 0, 1048578, 131073, 0, 1114114, 65537, 0, 786435, 65537, 0, 851971, 65537, 0, 917507, 131073, 0, 983043, 65537, 0, 1048579, 131073, 0, 1114115, 65537, 0, 786436, 65537, 0, 851972, 65537, 0, 917508, 131073, 0, 983044, 65537, 0, 1048580, 131073, 0, 1114116, 65537, 0, 786437, 131073, 0, 851973, 65537, 0, 917509, 131073, 0, 983045, 65537, 0, 1048581, 131073, 0, 1114117, 65537, 0, 786438, 65537, 0, 851974, 65537, 0, 917510, 131073, 0, 983046, 65537, 0, 1048582, 131073, 0, 1114118, 65537, 0, 786439, 65537, 0, 851975, 65537, 0, 917511, 131073, 0, 983047, 65537, 0, 1048583, 131073, 0, 1114119, 65537, 0, 786440, 131073, 0, 851976, 65537, 0, 917512, 131073, 0, 983048, 65537, 0, 1048584, 131073, 0, 1114120, 65537, 0, 786441, 65537, 0, 851977, 65537, 0, 917513, 131073, 0, 983049, 65537, 0, 1048585, 65537, 0, 1114121, 131073, 0, 786442, 65537, 0, 851978, 65537, 0, 917514, 131073, 0, 983050, 65537, 0, 1048586, 65537, 0, 1114122, 131073, 0, 786443, 131073, 0, 851979, 65537, 0, 917515, 131073, 0, 983051, 65537, 0, 1048587, 65537, 0, 1114123, 131073, 0, 786444, 65537, 0, 851980, 65537, 0, 917516, 131073, 0, 983052, 65537, 0, 1048588, 65537, 0, 1114124, 131073, 0, 786445, 65537, 0, 851981, 65537, 0, 917517, 131073, 0, 983053, 65537, 0, 1048589, 65537, 0, 1114125, 131073, 0, 786446, 131073, 0, 851982, 65537, 0, 917518, 131073, 0, 983054, 65537, 0, 1048590, 65537, 0, 1114126, 131073, 0, 786447, 65537, 0, 851983, 65537, 0, 917519, 65537, 0, 983055, 131073, 0, 1048591, 65537, 0, 1114127, 131073, 0, 786448, 65537, 0, 851984, 65537, 0, 917520, 65537, 0, 983056, 131073, 0, 1048592, 65537, 0, 1114128, 131073, 0, 786449, 131073, 0, 851985, 65537, 0, 917521, 65537, 0, 983057, 131073, 0, 1048593, 65537, 0, 1114129, 131073, 0, 786450, 65537, 0, 851986, 65537, 0, 917522, 65537, 0, 983058, 131073, 0, 1048594, 65537, 0, 1114130, 65537, 0, 786451, 65537, 0, 851987, 65537, 0, 917523, 65537, 0, 983059, 131073, 0, 1048595, 65537, 0, 1114131, 131073, 0, 786452, 131073, 0, 851988, 65537, 0, 917524, 65537, 0, 983060, 131073, 0, 1048596, 65537, 0, 1114132, 131073, 0, 786453, 65537, 0, 851989, 65537, 0, 917525, 65537, 0, 983061, 131073, 0, 1048597, 65537, 0, 1114133, 131073, 0, 786454, 65537, 0, 851990, 65537, 0, 917526, 65537, 0, 983062, 131073, 0, 1048598, 65537, 0, 1114134, 131073, 0, 786455, 131073, 0, 851991, 65537, 0, 917527, 65537, 0, 983063, 131073, 0, 1048599, 65537, 0, 1114135, 131073, 0, 786456, 65537, 0, 851992, 65537, 0, 917528, 65537, 0, 983064, 131073, 0, 1048600, 65537, 0, 1114136, 131073, 0, 786457, 65537, 0, 851993, 65537, 0, 917529, 65537, 0, 983065, 131073, 0, 1048601, 65537, 0, 1114137, 131073, 0, 786458, 131073, 0, 851994, 65537, 0, 917530, 131073, 0, 983066, 65537, 0, 1048602, 65537, 0, 1114138, 131073, 0, 786459, 65537, 0, 851995, 65537, 0, 917531, 131073, 0, 983067, 65537, 0, 1048603, 65537, 0, 1114139, 65537, 0, 786460, 65537, 0, 851996, 65537, 0, 917532, 131073, 0, 983068, 65537, 0, 1048604, 131073, 0, 1114140, 65537, 0, 786461, 131073, 0, 851997, 65537, 0, 917533, 131073, 0, 983069, 65537, 0, 1048605, 131073, 0, 1114141, 65537, 0, 786462, 65537, 0, 851998, 65537, 0, 917534, 131073, 0, 983070, 65537, 0, 1048606, 131073, 0, 1114142, 65537, 0, 786463, 65537, 0, 851999, 65537, 0, 917535, 131073, 0, 983071, 65537, 0, 1048607, 131073, 0, 1114143, 65537, 0, 786464, 65537, 0, 852000, 65537, 0, 917536, 131073, 0, 983072, 65537, 0, 1048608, 131073, 0, 1114144, 65537, 0, 786465, 131073, 0, 852001, 65537, 0, 917537, 131073, 0, 983073, 65537, 0, 1048609, 131073, 0, 1114145, 65537, 0, 786466, 65537, 0, 852002, 65537, 0, 917538, 131073, 0, 983074, 65537, 0, 1048610, 131073, 0, 1114146, 65537, 0, 786467, 65537, 0, 852003, 65537, 0, 917539, 65537, 0, 983075, 65537, 0, 1048611, 131073, 0, 1114147, 65537, 0, 786468, 65537, 0, 852004, 65537, 0, 917540, 65537, 0, 983076, 65537, 0, 1048612, 131073, 0, 1114148, 65537, 0, 786469, 65537, 0, 852005, 65537, 0, 917541, 131073, 0, 983077, 65537, 0, 1048613, 65537, 0, 1114149, 131073, 0, 786470, 65537, 0, 852006, 65537, 0, 917542, 65537, 0, 983078, 65537, 0, 1048614, 65537, 0, 1114150, 65537, 0, 786471, 65537, 0, 852007, 131073, 0, 917543, 65537, 0, 983079, 65537, 0, 1048615, 131073, 0, 1114151, 65537, 0, 917486, 1, 1, 983022, 1, 1, 1048558, 1, 1, 1114094, 1, 1, 1179630, 1, 1, 1245166, 1, 1, 917487, 1, 1, 983023, 1, 1, 1048559, 1, 1, 1114095, 1, 1, 1179631, 1, 1, 1245167, 1, 1, 917488, 1, 1, 983024, 1, 1, 1048560, 1, 1, 1114096, 1, 1, 1179632, 1, 1, 1245168, 1, 1, 1310704, 1, 1, 1376240, 1, 1, 1441776, 1, 1, 1507312, 1, 1, 1572848, 1, 1, 1638384, 1, 1, 917489, 1, 1, 983025, 1, 1, 1048561, 1, 1, 1114097, 1, 1, 1179633, 1, 1, 1245169, 1, 1, 1310705, 1, 1, 1376241, 1, 1, 1441777, 1, 1, 1507313, 1, 1, 1572849, 1, 1, 1638385, 1, 1, 917490, 1, 1, 983026, 1, 1, 1048562, 1, 1, 1114098, 1, 1, 1179634, 1, 1, 1245170, 1, 1, 1310706, 1, 1, 1376242, 1, 1, 1441778, 1, 1, 1507314, 1, 1, 1572850, 1, 1, 1638386, 1, 1, 917491, 1, 1, 983027, 1, 1, 1048563, 1, 1, 1114099, 1, 1, 1179635, 1, 1, 1245171, 1, 1, 1310707, 1, 1, 1376243, 1, 1, 1441779, 1, 1, 1507315, 1, 1, 1572851, 1, 1, 1638387, 1, 1, 1245172, 1, 1, 1310708, 1, 1, 1376244, 1, 1, 1441780, 1, 1, 1507316, 1, 1, 1572852, 1, 1, 1638388, 1, 1, 1245173, 1, 1, 1310709, 1, 1, 1376245, 1, 1, 1441781, 1, 1, 1507317, 1, 1, 1572853, 1, 1, 1638389, 1, 1, 1245174, 1, 1, 1310710, 1, 1, 1376246, 1, 1, 1441782, 1, 1, 1507318, 1, 1, 1572854, 1, 1, 1638390, 1, 1, 1245175, 1, 1, 1310711, 1, 1, 1376247, 1, 1, 1441783, 1, 1, 1507319, 1, 1, 1572855, 1, 1, 1638391, 1, 1, 1245176, 1, 1, 1310712, 1, 1, 1376248, 1, 1, 1441784, 1, 1, 1507320, 1, 1, 1572856, 1, 1, 1638392, 1, 1, 1245177, 1, 1, 1310713, 1, 1, 1376249, 1, 1, 1441785, 1, 1, 1507321, 1, 1, 1572857, 1, 1, 1638393, 1, 1, 1245178, 1, 1, 1310714, 1, 1, 1376250, 1, 1, 1441786, 1, 1, 1507322, 1, 1, 1572858, 1, 1, 1638394, 1, 1, 1245179, 1, 1, 1310715, 1, 1, 1376251, 1, 1, 1441787, 1, 1, 1507323, 1, 1, 1572859, 1, 1, 1638395, 1, 1, 1245180, 1, 1, 1310716, 1, 1, 1376252, 1, 1, 1441788, 1, 1, 1507324, 1, 1, 1572860, 1, 1, 1638396, 1, 1, 1245181, 1, 1, 1310717, 1, 1, 1376253, 1, 1, 1441789, 1, 1, 1507325, 1, 1, 1572861, 1, 1, 1638397, 1, 1, 1245182, 1, 1, 1310718, 1, 1, 1376254, 1, 1, 1441790, 1, 1, 1507326, 1, 1, 1572862, 1, 1, 1638398, 1, 1, 1245183, 1, 1, 1310719, 131073, 0, 1376255, 1, 1, 1441791, 1, 1, 1507327, 1, 1, 1572863, 1, 1, 1638399, 1, 1, 1179648, 65537, 0, 1245184, 131073, 0, 1310720, 1, 1, 1376256, 1, 1, 1441792, 1, 1, 1507328, 1, 1, 1572864, 1, 1, 1179649, 65537, 0, 1245185, 131073, 0, 1310721, 1, 1, 1376257, 1, 1, 1441793, 1, 1, 1507329, 1, 1, 1572865, 1, 1, 1179650, 65537, 0, 1245186, 131073, 0, 1310722, 1, 1, 1376258, 1, 1, 1441794, 1, 1, 1507330, 1, 1, 1572866, 1, 1, 1179651, 65537, 0, 1245187, 131073, 0, 1310723, 1, 1, 1376259, 1, 1, 1441795, 1, 1, 1507331, 1, 1, 1572867, 1, 1, 1179652, 65537, 0, 1245188, 131073, 0, 1310724, 1, 1, 1376260, 1, 1, 1441796, 1, 1, 1507332, 1, 1, 1572868, 1, 1, 1179653, 65537, 0, 1245189, 131073, 0, 1310725, 1, 1, 1376261, 1, 1, 1441797, 1, 1, 1507333, 1, 1, 1572869, 1, 1, 1179654, 65537, 0, 1245190, 131073, 0, 1310726, 1, 1, 1376262, 1, 1, 1441798, 1, 1, 1507334, 1, 1, 1572870, 1, 1, 1179655, 65537, 0, 1245191, 131073, 0, 1310727, 1, 1, 1376263, 1, 1, 1441799, 1, 1, 1507335, 1, 1, 1572871, 1, 1, 1179656, 65537, 0, 1245192, 131073, 0, 1310728, 1, 1, 1376264, 1, 1, 1441800, 1, 1, 1507336, 1, 1, 1572872, 1, 1, 1179657, 65537, 0, 1245193, 131073, 0, 1310729, 1, 1, 1376265, 1, 1, 1441801, 1, 1, 1507337, 1, 1, 1572873, 1, 1, 1179658, 65537, 0, 1245194, 131073, 0, 1310730, 1, 1, 1376266, 1, 1, 1441802, 1, 1, 1507338, 1, 1, 1572874, 1, 1, 1179659, 65537, 0, 1245195, 131073, 0, 1310731, 1, 1, 1376267, 1, 1, 1441803, 1, 1, 1507339, 1, 1, 1572875, 1, 1, 1179660, 65537, 0, 1245196, 131073, 0, 1310732, 1, 1, 1376268, 1, 1, 1441804, 1, 1, 1507340, 1, 1, 1572876, 1, 1, 1179661, 65537, 0, 1245197, 131073, 0, 1310733, 1, 1, 1376269, 1, 1, 1441805, 1, 1, 1507341, 1, 1, 1572877, 1, 1, 1179662, 65537, 0, 1245198, 131073, 0, 1310734, 1, 1, 1376270, 1, 1, 1441806, 1, 1, 1507342, 1, 1, 1572878, 1, 1, 1179663, 65537, 0, 1245199, 131073, 0, 1310735, 1, 1, 1376271, 1, 1, 1441807, 1, 1, 1507343, 1, 1, 1572879, 1, 1, 1179664, 65537, 0, 1245200, 131073, 0, 1310736, 1, 1, 1376272, 1, 1, 1441808, 1, 1, 1507344, 1, 1, 1572880, 1, 1, 1179665, 65537, 0, 1245201, 131073, 0, 1310737, 1, 1, 1376273, 1, 1, 1441809, 1, 1, 1507345, 1, 1, 1572881, 1, 1, 1179666, 65537, 0, 1245202, 131073, 0, 1310738, 1, 1, 1376274, 1, 1, 1441810, 1, 1, 1507346, 1, 1, 1572882, 1, 1, 1179667, 65537, 0, 1245203, 131073, 0, 1310739, 1, 1, 1376275, 1, 1, 1441811, 1, 1, 1507347, 1, 1, 1572883, 1, 1, 1179668, 65537, 0, 1245204, 131073, 0, 1310740, 1, 1, 1376276, 1, 1, 1441812, 1, 1, 1507348, 1, 1, 1572884, 1, 1, 1179669, 65537, 0, 1245205, 131073, 0, 1310741, 1, 1, 1376277, 1, 1, 1441813, 1, 1, 1507349, 1, 1, 1572885, 1, 1, 1179670, 65537, 0, 1245206, 131073, 0, 1310742, 1, 1, 1376278, 1, 1, 1441814, 1, 1, 1507350, 1, 1, 1572886, 1, 1, 1179671, 65537, 0, 1245207, 131073, 0, 1310743, 1, 1, 1376279, 1, 1, 1441815, 1, 1, 1507351, 1, 1, 1572887, 1, 1, 1179672, 65537, 0, 1245208, 131073, 0, 1310744, 1, 1, 1376280, 1, 1, 1441816, 1, 1, 1507352, 1, 1, 1572888, 1, 1, 1179673, 65537, 0, 1245209, 131073, 0, 1310745, 1, 1, 1376281, 1, 1, 1441817, 1, 1, 1507353, 1, 1, 1572889, 1, 1, 1179674, 65537, 0, 1245210, 131073, 0, 1310746, 1, 1, 1376282, 1, 1, 1441818, 1, 1, 1507354, 1, 1, 1572890, 1, 1, 1179675, 65537, 0, 1245211, 131073, 0, 1310747, 1, 1, 1376283, 1, 1, 1441819, 1, 1, 1507355, 1, 1, 1572891, 1, 1, 1179676, 65537, 0, 1245212, 131073, 0, 1310748, 1, 1, 1376284, 1, 1, 1441820, 1, 1, 1507356, 1, 1, 1572892, 1, 1, 1179677, 65537, 0, 1245213, 131073, 0, 1310749, 1, 1, 1376285, 1, 1, 1441821, 1, 1, 1507357, 1, 1, 1572893, 1, 1, 1179678, 65537, 0, 1245214, 131073, 0, 1310750, 1, 1, 1376286, 1, 1, 1441822, 1, 1, 1507358, 1, 1, 1572894, 1, 1, 1179679, 65537, 0, 1245215, 131073, 0, 1310751, 1, 1, 1376287, 1, 1, 1441823, 1, 1, 1507359, 1, 1, 1572895, 1, 1, 1179680, 65537, 0, 1245216, 131073, 0, 1310752, 1, 1, 1376288, 1, 1, 1441824, 1, 1, 1507360, 1, 1, 1572896, 1, 1, 1179681, 65537, 0, 1179682, 65537, 0, 1179683, 65537, 0, 1179684, 65537, 0, 1179685, 65537, 0, 1179686, 65537, 0, 1179687, 65537, 0, 852008, 1, 1, 917544, 1, 1, 983080, 1, 1, 1048616, 1, 1, 1114152, 1, 1, 1179688, 1, 1, 852009, 1, 1, 917545, 1, 1, 983081, 1, 1, 1048617, 1, 1, 1114153, 1, 1, 1179689, 1, 1, 852010, 1, 1, 917546, 1, 1, 983082, 1, 1, 1048618, 1, 1, 1114154, 1, 1, 1179690, 1, 1, 852011, 1, 1, 917547, 1, 1, 983083, 1, 1, 1048619, 1, 1, 1114155, 1, 1, 1179691, 1, 1, 852012, 1, 1, 917548, 1, 1, 983084, 1, 1, 1048620, 1, 1, 1114156, 1, 1, 1179692, 1, 1, 852013, 1, 1, 917549, 1, 1, 983085, 1, 1, 1048621, 1, 1, 1114157, 1, 1, 1179693, 1, 1, 852014, 1, 1, 917550, 1, 1, 983086, 1, 1, 1048622, 1, 1, 1114158, 1, 1, 1179694, 1, 1, 852015, 1, 1, 917551, 1, 1, 983087, 1, 1, 1048623, 1, 1, 1114159, 1, 1, 1179695, 1, 1, 852016, 1, 1, 917552, 1, 1, 983088, 1, 1, 1048624, 1, 1, 1114160, 1, 1, 1179696, 1, 1, 852017, 1, 1, 917553, 1, 1, 983089, 1, 1, 1048625, 1, 1, 1114161, 1, 1, 1179697, 1, 1, 852018, 1, 1, 917554, 1, 1, 983090, 1, 1, 1048626, 1, 1, 1114162, 1, 1, 1179698, 1, 1, 852019, 1, 1, 917555, 1, 1, 983091, 1, 1, 1048627, 1, 1, 1114163, 1, 1, 1179699, 1, 1, 852020, 1, 1, 917556, 1, 1, 983092, 1, 1, 1048628, 1, 1, 1114164, 1, 1, 1179700, 1, 1, 852021, 1, 1, 917557, 1, 1, 983093, 1, 1, 1048629, 1, 1, 1114165, 1, 1, 1179701, 1, 1, 852022, 1, 1, 917558, 1, 1, 983094, 1, 1, 1048630, 1, 1, 1114166, 1, 1, 1179702, 1, 1, 852023, 1, 1, 917559, 1, 1, 983095, 1, 1, 1048631, 1, 1, 1114167, 1, 1, 1179703, 1, 1, 852024, 1, 1, 917560, 1, 1, 983096, 1, 1, 1048632, 1, 1, 1114168, 1, 1, 1179704, 1, 1, 852025, 1, 1, 917561, 1, 1, 983097, 1, 1, 1048633, 1, 1, 1114169, 1, 1, 1179705, 1, 1, 852026, 1, 1, 917562, 1, 1, 983098, 1, 1, 1048634, 1, 1, 1114170, 1, 1, 1179706, 1, 1, 852027, 1, 1, 917563, 1, 1, 983099, 1, 1, 1048635, 1, 1, 1114171, 1, 1, 1179707, 1, 1, 852028, 1, 1, 917564, 1, 1, 983100, 1, 1, 1048636, 1, 1, 1114172, 1, 1, 1179708, 1, 1, 852029, 1, 1, 917565, 1, 1, 983101, 1, 1, 1048637, 1, 1, 1114173, 1, 1, 1179709, 1, 1, 852030, 1, 1, 917566, 1, 1, 983102, 1, 1, 1048638, 1, 1, 1114174, 1, 1, 1179710, 1, 1, 852031, 1, 1, 917567, 1, 1, 983103, 1, 1, 1048639, 1, 1, 1114175, 1, 1, 1179711, 1, 1, 852032, 1, 1, 917568, 1, 1, 983104, 1, 1, 1048640, 1, 1, 1114176, 1, 1, 1179712, 1, 1, 852033, 1, 1, 917569, 1, 1, 983105, 1, 1, 1048641, 1, 1, 1114177, 1, 1, 1179713, 1, 1, 852034, 1, 1, 917570, 1, 1, 983106, 1, 1, 1048642, 1, 1, 1114178, 1, 1, 1179714, 1, 1, 852035, 1, 1, 917571, 1, 1, 983107, 1, 1, 1048643, 1, 1, 1114179, 1, 1, 1179715, 1, 1, 852036, 1, 1, 917572, 1, 1, 983108, 1, 1, 1048644, 1, 1, 1114180, 1, 1, 1179716, 1, 1, 852037, 1, 1, 917573, 1, 1, 983109, 1, 1, 1048645, 1, 1, 1114181, 1, 1, 1179717, 1, 1, 852038, 1, 1, 917574, 1, 1, 983110, 1, 1, 1048646, 1, 1, 1114182, 1, 1, 1179718, 1, 1, 852039, 1, 1, 917575, 1, 1, 983111, 1, 1, 1048647, 1, 1, 1114183, 1, 1, 1179719, 1, 1, 852040, 1, 1, 917576, 1, 1, 983112, 1, 1, 1048648, 1, 1, 1114184, 1, 1, 1179720, 1, 1, 852041, 1, 1, 917577, 1, 1, 983113, 1, 1, 1048649, 1, 1, 1114185, 1, 1, 1179721, 1, 1, 852042, 1, 1, 917578, 1, 1, 983114, 1, 1, 1048650, 1, 1, 1114186, 1, 1, 1179722, 1, 1, 852043, 1, 1, 917579, 1, 1, 983115, 1, 1, 1048651, 1, 1, 1114187, 1, 1, 1179723, 1, 1, 852044, 1, 1, 917580, 1, 1, 983116, 1, 1, 1048652, 1, 1, 1114188, 1, 1, 1179724, 1, 1, 852045, 1, 1, 917581, 1, 1, 983117, 1, 1, 1048653, 1, 1, 1114189, 1, 1, 1179725, 1, 1, 852046, 1, 1, 917582, 1, 1, 983118, 1, 1, 1048654, 1, 1, 1114190, 1, 1, 1179726, 1, 1, 852047, 1, 1, 917583, 1, 1, 983119, 1, 1, 1048655, 1, 1, 1114191, 1, 1, 1179727, 1, 1, 852048, 1, 1, 917584, 1, 1, 983120, 1, 1, 1048656, 1, 1, 1114192, 1, 1, 1179728, 1, 1, 852049, 1, 1, 917585, 1, 1, 983121, 1, 1, 1048657, 1, 1, 1114193, 1, 1, 1179729, 1, 1, 852050, 1, 1, 917586, 1, 1, 983122, 1, 1, 1048658, 1, 1, 1114194, 1, 1, 1179730, 1, 1, 852051, 1, 1, 917587, 1, 1, 983123, 1, 1, 1048659, 1, 1, 1114195, 1, 1, 1179731, 1, 1, 852052, 1, 1, 917588, 1, 1, 983124, 1, 1, 1048660, 1, 1, 1114196, 1, 1, 1179732, 1, 1, 852053, 1, 1, 917589, 1, 1, 983125, 1, 1, 1048661, 1, 1, 1114197, 1, 1, 1179733, 1, 1, 852054, 1, 1, 917590, 1, 1, 983126, 1, 1, 1048662, 1, 1, 1114198, 1, 1, 1179734, 1, 1, 852055, 1, 1, 917591, 1, 1, 983127, 1, 1, 1048663, 1, 1, 1114199, 1, 1, 1179735, 1, 1, 852056, 1, 1, 917592, 1, 1, 983128, 1, 1, 1048664, 1, 1, 1114200, 1, 1, 1179736, 1, 1, 852057, 1, 1, 917593, 1, 1, 983129, 1, 1, 1048665, 1, 1, 1114201, 1, 1, 1179737, 1, 1, 852058, 1, 1, 917594, 1, 1, 983130, 1, 1, 1048666, 1, 1, 1114202, 1, 1, 1179738, 1, 1, 852059, 1, 1, 917595, 1, 1, 983131, 1, 1, 1048667, 1, 1, 1114203, 1, 1, 1179739, 1, 1, 852060, 1, 1, 917596, 1, 1, 983132, 1, 1, 1048668, 1, 1, 1114204, 1, 1, 1179740, 1, 1, 852061, 1, 1, 917597, 1, 1, 983133, 1, 1, 1048669, 1, 1, 1114205, 1, 1, 1179741, 1, 1, 852062, 1, 1, 917598, 1, 1, 983134, 1, 1, 1048670, 1, 1, 1114206, 1, 1, 1179742, 1, 1, 852063, 1, 1, 917599, 1, 1, 983135, 1, 1, 1048671, 1, 1, 1114207, 1, 1, 1179743, 1, 1, 852064, 1, 1, 917600, 1, 1, 983136, 1, 1, 1048672, 1, 1, 1114208, 1, 1, 1179744, 1, 1, 852065, 1, 1, 917601, 1, 1, 983137, 1, 1, 1048673, 1, 1, 1114209, 1, 1, 1179745, 1, 1, 852066, 1, 1, 917602, 1, 1, 983138, 1, 1, 1048674, 1, 1, 1114210, 1, 1, 1179746, 1, 1, 852067, 1, 1, 917603, 1, 1, 983139, 1, 1, 1048675, 1, 1, 1114211, 1, 1, 1179747, 1, 1, 852068, 1, 1, 917604, 1, 1, 983140, 1, 1, 1048676, 1, 1, 1114212, 1, 1, 1179748, 1, 1, 852069, 1, 1, 917605, 1, 1, 983141, 1, 1, 1048677, 1, 1, 1114213, 1, 1, 1179749, 1, 1, 852070, 1, 1, 917606, 1, 1, 983142, 1, 1, 1048678, 1, 1, 1114214, 1, 1, 1179750, 1, 1, 852071, 1, 1, 917607, 1, 1, 983143, 1, 1, 1048679, 1, 1, 1114215, 1, 1, 1179751, 1, 1, 852072, 1, 1, 917608, 1, 1, 983144, 1, 1, 1048680, 1, 1, 1114216, 1, 1, 1179752, 1, 1, 1245288, 1, 1, 1310824, 1, 1, 1376360, 1, 1, 1441896, 1, 1, 1507432, 1, 1, 1572968, 1, 1, 1638504, 1, 1, 1704040, 1, 1, 1769576, 1, 1, 1835112, 1, 1, 1900648, 1, 1, 1966184, 1, 1, 2031720, 1, 1, 2097256, 1, 1, 2162792, 1, 1, 2228328, 1, 1, 2293864, 1, 1, 65535, 1, 1, 131071, 1, 1, 196607, 1, 1, 262143, 1, 1, 327679, 1, 1, 393215, 1, 1, 458751, 1, 1, 524287, 1, 1, 589823, 1, 1, 655359, 1, 1, 720895, 1, 1, 786431, 1, 1, -131048, 65537, 0, -65512, 65537, 0, 24, 65537, 0, 65560, 65537, 0, 131096, 65537, 0, 196632, 131073, 0, 262168, 65537, 0, 327704, 65537, 0, 393240, 65537, 0, 458776, 65537, 0, 524312, 131073, 0, 589848, 65537, 0, 655384, 65537, 0, 720920, 65537, 0, -1, 1, 1, -65536, 65537, 0, -65535, 65537, 0, -65534, 65537, 0, -65533, 65537, 0, -65532, 65537, 0, -65531, 65537, 0, -65530, 65537, 0, -65529, 65537, 0, -65528, 65537, 0, -65527, 65537, 0, -65526, 65537, 0, -65525, 65537, 0, -65524, 65537, 0, -65523, 65537, 0, -65522, 65537, 0, -65521, 65537, 0, -65520, 65537, 0, -65519, 65537, 0, -65518, 65537, 0, -65517, 65537, 0, -65516, 65537, 0, -65515, 65537, 0, -65514, 65537, 0, -65513, 65537, 0, 720896, 65537, 0, 720897, 1, 1, 720898, 65537, 0, 655363, 65537, 0, 655364, 65537, 0, 655365, 65537, 0, 589829, 65537, 0, 589830, 65537, 0, 589831, 65537, 0, 0, 65537, 0, 65536, 65537, 0, 131072, 65537, 0, 196608, 65537, 0, 262144, 65537, 0, 327680, 65537, 0, 393216, 65537, 0, 458752, 65537, 0, 524288, 65537, 0, 589824, 65537, 0, 655360, 65537, 0, 1, 65537, 0, 65537, 131073, 0, 131073, 1, 1, 196609, 1, 1, 262145, 1, 1, 327681, 1, 1, 393217, 1, 1, 458753, 1, 1, 524289, 1, 1, 655361, 1, 1, 2, 131073, 0, 65538, 65537, 0, 131074, 65537, 0, 196610, 65537, 0, 262146, 65537, 0, 327682, 65537, 0, 393218, 65537, 0, 458754, 65537, 0, 524290, 65537, 0, 589826, 65537, 0, 655362, 65537, 0, 3, 131073, 0, 65539, 65537, 0, 131075, 65537, 0, 196611, 65537, 0, 262147, 65537, 0, 327683, 65537, 0, 393219, 65537, 0, 458755, 65537, 0, 524291, 65537, 0, 589827, 65537, 0, 720899, 65537, 0, 4, 131073, 0, 65540, 65537, 0, 131076, 131073, 0, 196612, 65537, 0, 262148, 65537, 0, 327684, 131073, 0, 393220, 65537, 0, 458756, 65537, 0, 524292, 131073, 0, 589828, 65537, 0, 720900, 65537, 0, 5, 131073, 0, 65541, 65537, 0, 131077, 131073, 0, 196613, 65537, 0, 262149, 65537, 0, 327685, 131073, 0, 393221, 65537, 0, 458757, 65537, 0, 524293, 131073, 0, 720901, 65537, 0, 6, 131073, 0, 65542, 65537, 0, 131078, 131073, 0, 196614, 65537, 0, 262150, 65537, 0, 327686, 65537, 0, 393222, 65537, 0, 458758, 65537, 0, 524294, 131073, 0, 655366, 65537, 0, 720902, 65537, 0, 7, 131073, 0, 65543, 65537, 0, 131079, 131073, 0, 196615, 65537, 0, 262151, 65537, 0, 327687, 65537, 0, 393223, 131073, 0, 458759, 65537, 0, 524295, 131073, 0, 655367, 131073, 0, 720903, 65537, 0, 8, 131073, 0, 65544, 65537, 0, 131080, 65537, 0, 196616, 131073, 0, 262152, 65537, 0, 327688, 65537, 0, 393224, 131073, 0, 458760, 65537, 0, 524296, 65537, 0, 589832, 65537, 0, 655368, 65537, 0, 720904, 65537, 0, 9, 131073, 0, 65545, 65537, 0, 131081, 65537, 0, 196617, 131073, 0, 262153, 65537, 0, 327689, 65537, 0, 393225, 131073, 0, 458761, 65537, 0, 524297, 65537, 0, 589833, 65537, 0, 655369, 65537, 0, 720905, 65537, 0, 10, 131073, 0, 65546, 65537, 0, 131082, 65537, 0, 196618, 131073, 0, 262154, 65537, 0, 327690, 65537, 0, 393226, 131073, 0, 458762, 65537, 0, 524298, 131073, 0, 589834, 65537, 0, 655370, 131073, 0, 720906, 65537, 0, 11, 131073, 0, 65547, 65537, 0, 131083, 65537, 0, 196619, 131073, 0, 262155, 65537, 0, 327691, 65537, 0, 393227, 65537, 0, 458763, 65537, 0, 524299, 131073, 0, 589835, 65537, 0, 655371, 65537, 0, 720907, 65537, 0, 12, 131073, 0, 65548, 65537, 0, 131084, 65537, 0, 196620, 131073, 0, 262156, 65537, 0, 327692, 65537, 0, 393228, 65537, 0, 458764, 65537, 0, 524300, 131073, 0, 589836, 65537, 0, 655372, 65537, 0, 720908, 65537, 0, 13, 131073, 0, 65549, 65537, 0, 131085, 65537, 0, 196621, 131073, 0, 262157, 65537, 0, 327693, 65537, 0, 393229, 131073, 0, 458765, 65537, 0, 524301, 131073, 0, 589837, 65537, 0, 655373, 131073, 0, 720909, 65537, 0, 14, 131073, 0, 65550, 65537, 0, 131086, 65537, 0, 196622, 131073, 0, 262158, 65537, 0, 327694, 65537, 0, 393230, 131073, 0, 458766, 65537, 0, 524302, 65537, 0, 589838, 65537, 0, 655374, 65537, 0, 720910, 65537, 0, 15, 131073, 0, 65551, 65537, 0, 131087, 65537, 0, 196623, 131073, 0, 262159, 65537, 0, 327695, 65537, 0, 393231, 131073, 0, 458767, 65537, 0, 524303, 65537, 0, 589839, 65537, 0, 655375, 65537, 0, 720911, 65537, 0, 16, 131073, 0, 65552, 65537, 0, 131088, 65537, 0, 196624, 65537, 0, 262160, 131073, 0, 327696, 65537, 0, 393232, 131073, 0, 458768, 65537, 0, 524304, 131073, 0, 589840, 65537, 0, 655376, 131073, 0, 720912, 65537, 0, 17, 131073, 0, 65553, 65537, 0, 131089, 65537, 0, 196625, 65537, 0, 262161, 131073, 0, 327697, 65537, 0, 393233, 65537, 0, 458769, 65537, 0, 524305, 131073, 0, 589841, 65537, 0, 655377, 65537, 0, 720913, 65537, 0, 18, 131073, 0, 65554, 65537, 0, 131090, 65537, 0, 196626, 65537, 0, 262162, 131073, 0, 327698, 65537, 0, 393234, 65537, 0, 458770, 65537, 0, 524306, 131073, 0, 589842, 65537, 0, 655378, 65537, 0, 720914, 65537, 0, 19, 65537, 0, 65555, 131073, 0, 131091, 65537, 0, 196627, 65537, 0, 262163, 131073, 0, 327699, 65537, 0, 393235, 131073, 0, 458771, 65537, 0, 524307, 131073, 0, 589843, 65537, 0, 655379, 131073, 0, 720915, 65537, 0, 20, 65537, 0, 65556, 131073, 0, 131092, 65537, 0, 196628, 65537, 0, 262164, 131073, 0, 327700, 65537, 0, 393236, 131073, 0, 458772, 65537, 0, 524308, 65537, 0, 589844, 65537, 0, 655380, 65537, 0, 720916, 65537, 0, 21, 65537, 0, 65557, 131073, 0, 131093, 65537, 0, 196629, 65537, 0, 262165, 65537, 0, 327701, 65537, 0, 393237, 131073, 0, 458773, 65537, 0, 524309, 65537, 0, 589845, 65537, 0, 655381, 65537, 0, 720917, 65537, 0, 22, 65537, 0, 65558, 131073, 0, 131094, 65537, 0, 196630, 65537, 0, 262166, 65537, 0, 327702, 65537, 0, 393238, 131073, 0, 458774, 65537, 0, 524310, 131073, 0, 589846, 65537, 0, 655382, 131073, 0, 720918, 65537, 0, 23, 65537, 0, 65559, 65537, 0, 131095, 131073, 0, 196631, 65537, 0, 262167, 65537, 0, 327703, 65537, 0, 393239, 65537, 0, 458775, 65537, 0, 524311, 131073, 0, 655383, 65537, 0, 720919, 65537, 0, 589825, 1, 1, -131072, 65537, 0, -196608, 65537, 0, -196607, 65537, 0, -196606, 65537, 0, -196605, 65537, 0, -196604, 65537, 0, -196603, 65537, 0, -196602, 65537, 0, -196601, 65537, 0, -196600, 65537, 0, -196599, 65537, 0, -196598, 65537, 0, -196597, 65537, 0, -196596, 65537, 0, -262131, 65537, 0, -262130, 65537, 0, -262129, 65537, 0, -196593, 65537, 0, -196592, 65537, 0, -196591, 65537, 0, -196590, 65537, 0, -196589, 65537, 0, -262125, 65537, 0, -262124, 65537, 0, -196587, 65537, 0, -196586, 65537, 0, -196585, 65537, 0, -131049, 65537, 0, -131066, 65537, 0, -131067, 65537, 0, -131068, 65537, 0, -131069, 65537, 0, -131070, 65537, 0, -131071, 65537, 0, -131065, 65537, 0, -131064, 65537, 0, -131063, 65537, 0, -131062, 65537, 0, -131061, 65537, 0, -131060, 65537, 0, -131059, 65537, 0, -196595, 65537, 0, -196594, 65537, 0, -131058, 65537, 0, -131057, 65537, 0, -131056, 65537, 0, -131055, 65537, 0, -131054, 65537, 0, -131053, 65537, 0, -131052, 65537, 0, -196588, 65537, 0, -131051, 65537, 0, -131050, 65537, 0, -262127, 65537, 0, -262128, 65537, 0, -262126, 65537, 0, -262144, 65537, 0, -262143, 65537, 0, -262142, 65537, 0, -262141, 65537, 0, -262140, 65537, 0, -262139, 65537, 0, -262138, 65537, 0, -262137, 65537, 0, -262136, 65537, 0, -262135, 65537, 0, -262134, 65537, 0, -262133, 65537, 0, -262132, 65537, 0, -262123, 65537, 0, -262122, 65537, 0, -262121, 65537, 0, -196609, 1, 1, -131073, 1, 1, -65537, 1, 1, -262120, 65537, 0, -196584, 65537, 0, 2359400, 1, 1, 2424936, 1, 1, 2490472, 1, 1, 2556008, 1, 1, 2621544, 1, 1, 2687080, 1, 1, 2752616, 1, 1, -262145, 1, 1, 589847, 65537, 0, 786472, 1, 1, 720936, 1, 1, 655400, 1, 1, 589864, 1, 1, 524328, 1, 1, 458792, 1, 1, 393256, 1, 1, 327720, 1, 1, 262184, 1, 1, 196648, 1, 1, 131112, 1, 1, 65576, 1, 1, 40, 1, 1, -65496, 1, 1, -131032, 1, 1, -196583, 65537, 0, -196582, 65537, 0, -196581, 65537, 0, -196580, 65537, 0, -196579, 65537, 0, -196578, 65537, 0, -196577, 65537, 0, -196576, 65537, 0, -196575, 65537, 0, -196574, 65537, 0, -196573, 65537, 0, -196572, 65537, 0, -196571, 65537, 0, -196570, 65537, 0, -196569, 65537, 0, -196568, 1, 1, -131047, 65537, 0, -65511, 65537, 0, 25, 65537, 0, 65561, 131073, 0, 131097, 65537, 0, 196633, 65537, 0, 262169, 131073, 0, 327705, 65537, 0, 393241, 65537, 0, 458777, 65537, 0, 524313, 131073, 0, 589849, 65537, 0, 655385, 131073, 0, 720921, 65537, 0, -131046, 65537, 0, -65510, 65537, 0, 26, 65537, 0, 65562, 131073, 0, 131098, 65537, 0, 196634, 65537, 0, 262170, 65537, 0, 327706, 131073, 0, 393242, 65537, 0, 458778, 65537, 0, 524314, 65537, 0, 589850, 65537, 0, 655386, 65537, 0, 720922, 65537, 0, -131045, 65537, 0, -65509, 65537, 0, 27, 65537, 0, 65563, 131073, 0, 131099, 65537, 0, 196635, 131073, 0, 262171, 65537, 0, 327707, 65537, 0, 393243, 131073, 0, 458779, 65537, 0, 524315, 65537, 0, 589851, 65537, 0, 655387, 65537, 0, 720923, 65537, 0, -131044, 65537, 0, -65508, 65537, 0, 28, 65537, 0, 65564, 131073, 0, 131100, 65537, 0, 196636, 65537, 0, 262172, 65537, 0, 327708, 65537, 0, 393244, 65537, 0, 458780, 131073, 0, 524316, 65537, 0, 589852, 65537, 0, 655388, 131073, 0, 720924, 65537, 0, -131043, 65537, 0, -65507, 65537, 0, 29, 65537, 0, 65565, 131073, 0, 131101, 65537, 0, 196637, 65537, 0, 262173, 65537, 0, 327709, 131073, 0, 393245, 65537, 0, 458781, 65537, 0, 524317, 131073, 0, 589853, 65537, 0, 655389, 65537, 0, 720925, 65537, 0, -131042, 65537, 0, -65506, 65537, 0, 30, 65537, 0, 65566, 131073, 0, 131102, 65537, 0, 196638, 131073, 0, 262174, 65537, 0, 327710, 65537, 0, 393246, 65537, 0, 458782, 65537, 0, 524318, 65537, 0, 589854, 131073, 0, 655390, 65537, 0, 720926, 65537, 0, -131041, 65537, 0, -65505, 65537, 0, 31, 65537, 0, 65567, 131073, 0, 131103, 65537, 0, 196639, 65537, 0, 262175, 65537, 0, 327711, 65537, 0, 393247, 65537, 0, 458783, 131073, 0, 524319, 65537, 0, 589855, 65537, 0, 655391, 131073, 0, 720927, 65537, 0, -131040, 65537, 0, -65504, 65537, 0, 32, 65537, 0, 65568, 131073, 0, 131104, 65537, 0, 196640, 65537, 0, 262176, 65537, 0, 327712, 131073, 0, 393248, 65537, 0, 458784, 65537, 0, 524320, 65537, 0, 589856, 65537, 0, 655392, 65537, 0, 720928, 131073, 0, -131039, 65537, 0, -65503, 65537, 0, 33, 65537, 0, 65569, 131073, 0, 131105, 65537, 0, 196641, 131073, 0, 262177, 65537, 0, 327713, 131073, 0, 393249, 65537, 0, 458785, 65537, 0, 524321, 65537, 0, 589857, 131073, 0, 655393, 65537, 0, 720929, 65537, 0, -131038, 65537, 0, -65502, 65537, 0, 34, 65537, 0, 65570, 131073, 0, 131106, 65537, 0, 196642, 65537, 0, 262178, 65537, 0, 327714, 131073, 0, 393250, 65537, 0, 458786, 131073, 0, 524322, 65537, 0, 589858, 65537, 0, 655394, 65537, 0, 720930, 65537, 0, -131037, 65537, 0, -65501, 65537, 0, 35, 65537, 0, 65571, 131073, 0, 131107, 65537, 0, 196643, 65537, 0, 262179, 65537, 0, 327715, 65537, 0, 393251, 65537, 0, 458787, 131073, 0, 524323, 65537, 0, 589859, 65537, 0, 655395, 65537, 0, 720931, 131073, 0, -131036, 65537, 0, -65500, 65537, 0, 36, 65537, 0, 65572, 65537, 0, 131108, 65537, 0, 196644, 131073, 0, 262180, 65537, 0, 327716, 65537, 0, 393252, 65537, 0, 458788, 65537, 0, 524324, 65537, 0, 589860, 65537, 0, 655396, 65537, 0, 720932, 65537, 0, -131035, 65537, 0, -65499, 65537, 0, 37, 65537, 0, 65573, 65537, 0, 131109, 131073, 0, 196645, 65537, 0, 262181, 65537, 0, 327717, 131073, 0, 393253, 65537, 0, 458789, 65537, 0, 524325, 131073, 0, 589861, 65537, 0, 655397, 65537, 0, 720933, 131073, 0, -131034, 65537, 0, -65498, 65537, 0, 38, 65537, 0, 65574, 65537, 0, 131110, 65537, 0, 196646, 65537, 0, 262182, 65537, 0, 327718, 65537, 0, 393254, 65537, 0, 458790, 65537, 0, 524326, 65537, 0, 589862, 65537, 0, 655398, 65537, 0, 720934, 65537, 0, -131033, 65537, 0, -65497, 65537, 0, 39, 65537, 0, 65575, 131073, 0, 131111, 65537, 0, 196647, 65537, 0, 262183, 131073, 0, 327719, 65537, 0, 393255, 65537, 0, 458791, 131073, 0, 524327, 65537, 0, 589863, 65537, 0, 655399, 131073, 0, 720935, 65537, 0, -262119, 65537, 0, -262118, 65537, 0, -262117, 65537, 0, -262116, 65537, 0, -262115, 65537, 0, -262114, 65537, 0, -262113, 65537, 0, -262112, 65537, 0, -262111, 65537, 0, -262110, 65537, 0, -262109, 65537, 0, -262108, 65537, 0, -262107, 65537, 0, -262106, 65537, 0, -262105, 65537, 0, -262104, 1, 1, -327640, 1, 1, -1638400, 65537, 0, -1572864, 65537, 0, -1507328, 65537, 0, -1441792, 65537, 0, -1376256, 65537, 0, -1310720, 65537, 0, -1245184, 65537, 0, -1179648, 65537, 0, -1114112, 65537, 0, -1048576, 65537, 0, -983040, 65537, 0, -917504, 65537, 0, -851968, 65537, 0, -786432, 65537, 0, -720896, 65537, 0, -655360, 65537, 0, -589824, 65537, 0, -524288, 65537, 0, -458752, 65537, 0, -393216, 65537, 0, -327680, 65537, 0, -1638399, 65537, 0, -1572863, 65537, 0, -1507327, 65537, 0, -1441791, 65537, 0, -1376255, 65537, 0, -1310719, 65537, 0, -1245183, 65537, 0, -1179647, 65537, 0, -1114111, 65537, 0, -1048575, 65537, 0, -983039, 65537, 0, -917503, 65537, 0, -851967, 65537, 0, -786431, 65537, 0, -720895, 65537, 0, -655359, 65537, 0, -589823, 65537, 0, -524287, 65537, 0, -458751, 65537, 0, -393215, 65537, 0, -327679, 65537, 0, -1638398, 65537, 0, -1572862, 65537, 0, -1507326, 65537, 0, -1441790, 65537, 0, -1376254, 65537, 0, -1310718, 65537, 0, -1245182, 65537, 0, -1179646, 65537, 0, -1114110, 65537, 0, -1048574, 65537, 0, -983038, 65537, 0, -917502, 65537, 0, -851966, 65537, 0, -786430, 65537, 0, -720894, 65537, 0, -655358, 65537, 0, -589822, 65537, 0, -524286, 65537, 0, -458750, 65537, 0, -393214, 65537, 0, -327678, 65537, 0, -1638397, 65537, 0, -1572861, 65537, 0, -1507325, 65537, 0, -1441789, 65537, 0, -1376253, 65537, 0, -1310717, 65537, 0, -1245181, 65537, 0, -1179645, 65537, 0, -1114109, 65537, 0, -1048573, 65537, 0, -983037, 65537, 0, -917501, 65537, 0, -851965, 65537, 0, -786429, 65537, 0, -720893, 65537, 0, -655357, 65537, 0, -589821, 65537, 0, -524285, 65537, 0, -458749, 65537, 0, -393213, 65537, 0, -327677, 65537, 0, -1638396, 65537, 0, -1572860, 65537, 0, -1507324, 65537, 0, -1441788, 65537, 0, -1376252, 65537, 0, -1310716, 65537, 0, -1245180, 65537, 0, -1179644, 65537, 0, -1114108, 65537, 0, -1048572, 65537, 0, -983036, 65537, 0, -917500, 65537, 0, -851964, 65537, 0, -786428, 65537, 0, -720892, 65537, 0, -655356, 65537, 0, -589820, 65537, 0, -524284, 65537, 0, -458748, 65537, 0, -393212, 65537, 0, -327676, 65537, 0, -1638395, 65537, 0, -1572859, 65537, 0, -1507323, 65537, 0, -1441787, 65537, 0, -1376251, 65537, 0, -1310715, 65537, 0, -1245179, 65537, 0, -1179643, 65537, 0, -1114107, 65537, 0, -1048571, 65537, 0, -983035, 65537, 0, -917499, 65537, 0, -851963, 65537, 0, -786427, 65537, 0, -720891, 65537, 0, -655355, 65537, 0, -589819, 65537, 0, -524283, 65537, 0, -458747, 65537, 0, -393211, 65537, 0, -327675, 65537, 0, -1638394, 65537, 0, -1572858, 65537, 0, -1507322, 65537, 0, -1441786, 65537, 0, -1376250, 65537, 0, -1310714, 65537, 0, -1245178, 65537, 0, -1179642, 65537, 0, -1114106, 65537, 0, -1048570, 65537, 0, -983034, 65537, 0, -917498, 65537, 0, -851962, 65537, 0, -786426, 65537, 0, -720890, 65537, 0, -655354, 65537, 0, -589818, 65537, 0, -524282, 65537, 0, -458746, 65537, 0, -393210, 65537, 0, -327674, 65537, 0, -1638393, 65537, 0, -1572857, 65537, 0, -1507321, 65537, 0, -1441785, 65537, 0, -1376249, 65537, 0, -1310713, 65537, 0, -1245177, 65537, 0, -1179641, 65537, 0, -1114105, 65537, 0, -1048569, 65537, 0, -983033, 65537, 0, -917497, 65537, 0, -851961, 65537, 0, -786425, 65537, 0, -720889, 65537, 0, -655353, 65537, 0, -589817, 65537, 0, -524281, 65537, 0, -458745, 65537, 0, -393209, 65537, 0, -327673, 65537, 0, -1638392, 65537, 0, -1572856, 65537, 0, -1507320, 65537, 0, -1441784, 65537, 0, -1376248, 65537, 0, -1310712, 65537, 0, -1245176, 65537, 0, -1179640, 65537, 0, -1114104, 65537, 0, -1048568, 65537, 0, -983032, 65537, 0, -917496, 65537, 0, -851960, 65537, 0, -786424, 65537, 0, -720888, 65537, 0, -655352, 65537, 0, -589816, 65537, 0, -524280, 65537, 0, -458744, 65537, 0, -393208, 65537, 0, -327672, 65537, 0, -1638391, 65537, 0, -1572855, 65537, 0, -1507319, 65537, 0, -1441783, 65537, 0, -1376247, 65537, 0, -1310711, 65537, 0, -1245175, 65537, 0, -1179639, 65537, 0, -1114103, 65537, 0, -1048567, 65537, 0, -983031, 65537, 0, -917495, 65537, 0, -851959, 65537, 0, -786423, 65537, 0, -720887, 65537, 0, -655351, 65537, 0, -589815, 65537, 0, -524279, 65537, 0, -458743, 65537, 0, -393207, 65537, 0, -327671, 65537, 0, -1638390, 65537, 0, -1572854, 65537, 0, -1507318, 65537, 0, -1441782, 65537, 0, -1376246, 65537, 0, -1310710, 65537, 0, -1245174, 65537, 0, -1179638, 65537, 0, -1114102, 65537, 0, -1048566, 65537, 0, -983030, 65537, 0, -917494, 65537, 0, -851958, 65537, 0, -786422, 65537, 0, -720886, 65537, 0, -655350, 65537, 0, -589814, 65537, 0, -524278, 65537, 0, -458742, 65537, 0, -393206, 65537, 0, -327670, 65537, 0, -1638389, 65537, 0, -1572853, 65537, 0, -1507317, 65537, 0, -1441781, 65537, 0, -1376245, 65537, 0, -1310709, 65537, 0, -1245173, 65537, 0, -1179637, 65537, 0, -1114101, 65537, 0, -1048565, 65537, 0, -983029, 65537, 0, -917493, 65537, 0, -851957, 65537, 0, -786421, 65537, 0, -720885, 65537, 0, -655349, 65537, 0, -589813, 65537, 0, -524277, 65537, 0, -458741, 65537, 0, -393205, 65537, 0, -327669, 65537, 0, -1638388, 65537, 0, -1572852, 65537, 0, -1507316, 65537, 0, -1441780, 65537, 0, -1376244, 65537, 0, -1310708, 65537, 0, -1245172, 65537, 0, -1179636, 65537, 0, -1114100, 65537, 0, -1048564, 65537, 0, -983028, 65537, 0, -917492, 65537, 0, -851956, 65537, 0, -786420, 65537, 0, -720884, 65537, 0, -655348, 65537, 0, -589812, 65537, 0, -524276, 65537, 0, -458740, 65537, 0, -393204, 65537, 0, -327668, 65537, 0, -1638387, 65537, 0, -1572851, 65537, 0, -1507315, 65537, 0, -1441779, 65537, 0, -1376243, 65537, 0, -1310707, 65537, 0, -1245171, 65537, 0, -1179635, 65537, 0, -1114099, 65537, 0, -1048563, 65537, 0, -983027, 65537, 0, -917491, 65537, 0, -851955, 65537, 0, -786419, 65537, 0, -720883, 65537, 0, -655347, 65537, 0, -589811, 65537, 0, -524275, 65537, 0, -458739, 65537, 0, -393203, 65537, 0, -327667, 65537, 0, -1638386, 65537, 0, -1572850, 65537, 0, -1507314, 65537, 0, -1441778, 65537, 0, -1376242, 65537, 0, -1310706, 65537, 0, -1245170, 65537, 0, -1179634, 65537, 0, -1114098, 65537, 0, -1048562, 65537, 0, -983026, 65537, 0, -917490, 65537, 0, -851954, 65537, 0, -786418, 65537, 0, -720882, 65537, 0, -655346, 65537, 0, -589810, 65537, 0, -524274, 65537, 0, -458738, 65537, 0, -393202, 65537, 0, -327666, 65537, 0, -1638385, 65537, 0, -1572849, 65537, 0, -1507313, 65537, 0, -1441777, 65537, 0, -1376241, 65537, 0, -1310705, 65537, 0, -1245169, 65537, 0, -1179633, 65537, 0, -1114097, 65537, 0, -1048561, 65537, 0, -983025, 65537, 0, -917489, 65537, 0, -851953, 65537, 0, -786417, 65537, 0, -720881, 65537, 0, -655345, 65537, 0, -589809, 65537, 0, -524273, 65537, 0, -458737, 65537, 0, -393201, 65537, 0, -327665, 65537, 0, -1638384, 65537, 0, -1572848, 65537, 0, -1507312, 65537, 0, -1441776, 65537, 0, -1376240, 65537, 0, -1310704, 65537, 0, -1245168, 65537, 0, -1179632, 65537, 0, -1114096, 65537, 0, -1048560, 65537, 0, -983024, 65537, 0, -917488, 65537, 0, -851952, 65537, 0, -786416, 65537, 0, -720880, 65537, 0, -655344, 65537, 0, -589808, 65537, 0, -524272, 65537, 0, -458736, 65537, 0, -393200, 65537, 0, -327664, 65537, 0, -1638383, 65537, 0, -1572847, 65537, 0, -1507311, 65537, 0, -1441775, 65537, 0, -1376239, 65537, 0, -1310703, 65537, 0, -1245167, 65537, 0, -1179631, 65537, 0, -1114095, 65537, 0, -1048559, 65537, 0, -983023, 65537, 0, -917487, 65537, 0, -851951, 65537, 0, -786415, 65537, 0, -720879, 65537, 0, -655343, 65537, 0, -589807, 65537, 0, -524271, 65537, 0, -458735, 65537, 0, -393199, 65537, 0, -327663, 65537, 0, -1638382, 65537, 0, -1572846, 65537, 0, -1507310, 65537, 0, -1441774, 65537, 0, -1376238, 65537, 0, -1310702, 65537, 0, -1245166, 65537, 0, -1179630, 65537, 0, -1114094, 65537, 0, -1048558, 65537, 0, -983022, 65537, 0, -917486, 65537, 0, -851950, 65537, 0, -786414, 65537, 0, -720878, 65537, 0, -655342, 65537, 0, -589806, 65537, 0, -524270, 65537, 0, -458734, 65537, 0, -393198, 65537, 0, -327662, 65537, 0, -1638381, 65537, 0, -1572845, 65537, 0, -1507309, 65537, 0, -1441773, 65537, 0, -1376237, 65537, 0, -1310701, 65537, 0, -1245165, 65537, 0, -1179629, 65537, 0, -1114093, 65537, 0, -1048557, 65537, 0, -983021, 65537, 0, -917485, 65537, 0, -851949, 65537, 0, -786413, 65537, 0, -720877, 65537, 0, -655341, 65537, 0, -589805, 65537, 0, -524269, 65537, 0, -458733, 65537, 0, -393197, 65537, 0, -327661, 65537, 0, -1638380, 65537, 0, -1572844, 65537, 0, -1507308, 65537, 0, -1441772, 65537, 0, -1376236, 65537, 0, -1310700, 65537, 0, -1245164, 65537, 0, -1179628, 65537, 0, -1114092, 65537, 0, -1048556, 65537, 0, -983020, 65537, 0, -917484, 65537, 0, -851948, 65537, 0, -786412, 65537, 0, -720876, 65537, 0, -655340, 65537, 0, -589804, 65537, 0, -524268, 65537, 0, -458732, 65537, 0, -393196, 65537, 0, -327660, 65537, 0, -1638379, 65537, 0, -1572843, 65537, 0, -1507307, 65537, 0, -1441771, 65537, 0, -1376235, 65537, 0, -1310699, 65537, 0, -1245163, 65537, 0, -1179627, 65537, 0, -1114091, 65537, 0, -1048555, 65537, 0, -983019, 65537, 0, -917483, 65537, 0, -851947, 65537, 0, -786411, 65537, 0, -720875, 65537, 0, -655339, 65537, 0, -589803, 65537, 0, -524267, 65537, 0, -458731, 65537, 0, -393195, 65537, 0, -327659, 65537, 0, -1638378, 65537, 0, -1572842, 65537, 0, -1507306, 65537, 0, -1441770, 65537, 0, -1376234, 65537, 0, -1310698, 65537, 0, -1245162, 65537, 0, -1179626, 65537, 0, -1114090, 65537, 0, -1048554, 65537, 0, -983018, 65537, 0, -917482, 65537, 0, -851946, 65537, 0, -786410, 65537, 0, -720874, 65537, 0, -655338, 65537, 0, -589802, 65537, 0, -524266, 65537, 0, -458730, 65537, 0, -393194, 65537, 0, -327658, 65537, 0, -1638377, 65537, 0, -1572841, 65537, 0, -1507305, 65537, 0, -1441769, 65537, 0, -1376233, 65537, 0, -1310697, 65537, 0, -1245161, 65537, 0, -1179625, 65537, 0, -1114089, 65537, 0, -1048553, 65537, 0, -983017, 65537, 0, -917481, 65537, 0, -851945, 65537, 0, -786409, 65537, 0, -720873, 65537, 0, -655337, 65537, 0, -589801, 65537, 0, -524265, 65537, 0, -458729, 65537, 0, -393193, 65537, 0, -327657, 65537, 0, -1638376, 65537, 0, -1572840, 65537, 0, -1507304, 65537, 0, -1441768, 65537, 0, -1376232, 65537, 0, -1310696, 65537, 0, -1245160, 65537, 0, -1179624, 65537, 0, -1114088, 65537, 0, -1048552, 65537, 0, -983016, 65537, 0, -917480, 65537, 0, -851944, 65537, 0, -786408, 65537, 0, -720872, 65537, 0, -655336, 65537, 0, -589800, 65537, 0, -524264, 65537, 0, -458728, 65537, 0, -393192, 65537, 0, -327656, 65537, 0, -1638375, 65537, 0, -1572839, 65537, 0, -1507303, 65537, 0, -1441767, 65537, 0, -1376231, 65537, 0, -1310695, 65537, 0, -1245159, 65537, 0, -1179623, 65537, 0, -1114087, 65537, 0, -1048551, 65537, 0, -983015, 65537, 0, -917479, 65537, 0, -851943, 65537, 0, -786407, 65537, 0, -720871, 65537, 0, -655335, 65537, 0, -589799, 65537, 0, -524263, 65537, 0, -458727, 65537, 0, -393191, 65537, 0, -327655, 65537, 0, -1638374, 65537, 0, -1572838, 65537, 0, -1507302, 65537, 0, -1441766, 65537, 0, -1376230, 65537, 0, -1310694, 65537, 0, -1245158, 65537, 0, -1179622, 65537, 0, -1114086, 65537, 0, -1048550, 65537, 0, -983014, 65537, 0, -917478, 65537, 0, -851942, 65537, 0, -786406, 65537, 0, -720870, 65537, 0, -655334, 65537, 0, -589798, 65537, 0, -524262, 65537, 0, -458726, 65537, 0, -393190, 65537, 0, -327654, 65537, 0, -1638373, 65537, 0, -1572837, 65537, 0, -1507301, 65537, 0, -1441765, 65537, 0, -1376229, 65537, 0, -1310693, 65537, 0, -1245157, 65537, 0, -1179621, 65537, 0, -1114085, 65537, 0, -1048549, 65537, 0, -983013, 65537, 0, -917477, 65537, 0, -851941, 65537, 0, -786405, 65537, 0, -720869, 65537, 0, -655333, 65537, 0, -589797, 65537, 0, -524261, 65537, 0, -458725, 65537, 0, -393189, 65537, 0, -327653, 65537, 0, -1638372, 65537, 0, -1572836, 65537, 0, -1507300, 65537, 0, -1441764, 65537, 0, -1376228, 65537, 0, -1310692, 65537, 0, -1245156, 65537, 0, -1179620, 65537, 0, -1114084, 65537, 0, -1048548, 65537, 0, -983012, 65537, 0, -917476, 65537, 0, -851940, 65537, 0, -786404, 65537, 0, -720868, 65537, 0, -655332, 65537, 0, -589796, 65537, 0, -524260, 65537, 0, -458724, 65537, 0, -393188, 65537, 0, -327652, 65537, 0, -1638371, 65537, 0, -1572835, 65537, 0, -1507299, 65537, 0, -1441763, 65537, 0, -1376227, 65537, 0, -1310691, 65537, 0, -1245155, 65537, 0, -1179619, 65537, 0, -1114083, 65537, 0, -1048547, 65537, 0, -983011, 65537, 0, -917475, 65537, 0, -851939, 65537, 0, -786403, 65537, 0, -720867, 65537, 0, -655331, 65537, 0, -589795, 65537, 0, -524259, 65537, 0, -458723, 65537, 0, -393187, 65537, 0, -327651, 65537, 0, -1638370, 65537, 0, -1572834, 65537, 0, -1507298, 65537, 0, -1441762, 65537, 0, -1376226, 65537, 0, -1310690, 65537, 0, -1245154, 65537, 0, -1179618, 65537, 0, -1114082, 65537, 0, -1048546, 65537, 0, -983010, 65537, 0, -917474, 65537, 0, -851938, 65537, 0, -786402, 65537, 0, -720866, 65537, 0, -655330, 65537, 0, -589794, 65537, 0, -524258, 65537, 0, -458722, 65537, 0, -393186, 65537, 0, -327650, 65537, 0, -1638369, 65537, 0, -1572833, 65537, 0, -1507297, 65537, 0, -1441761, 65537, 0, -1376225, 65537, 0, -1310689, 65537, 0, -1245153, 65537, 0, -1179617, 65537, 0, -1114081, 65537, 0, -1048545, 65537, 0, -983009, 65537, 0, -917473, 65537, 0, -851937, 65537, 0, -786401, 65537, 0, -720865, 65537, 0, -655329, 65537, 0, -589793, 65537, 0, -524257, 65537, 0, -458721, 65537, 0, -393185, 65537, 0, -327649, 65537, 0, -1638368, 65537, 0, -1572832, 65537, 0, -1507296, 65537, 0, -1441760, 65537, 0, -1376224, 65537, 0, -1310688, 65537, 0, -1245152, 65537, 0, -1179616, 65537, 0, -1114080, 65537, 0, -1048544, 65537, 0, -983008, 65537, 0, -917472, 65537, 0, -851936, 65537, 0, -786400, 65537, 0, -720864, 65537, 0, -655328, 65537, 0, -589792, 65537, 0, -524256, 65537, 0, -458720, 65537, 0, -393184, 65537, 0, -327648, 65537, 0, -1638367, 65537, 0, -1572831, 65537, 0, -1507295, 65537, 0, -1441759, 65537, 0, -1376223, 65537, 0, -1310687, 65537, 0, -1245151, 65537, 0, -1179615, 65537, 0, -1114079, 65537, 0, -1048543, 65537, 0, -983007, 65537, 0, -917471, 65537, 0, -851935, 65537, 0, -786399, 65537, 0, -720863, 65537, 0, -655327, 65537, 0, -589791, 65537, 0, -524255, 65537, 0, -458719, 65537, 0, -393183, 65537, 0, -327647, 65537, 0, -1638366, 65537, 0, -1572830, 65537, 0, -1507294, 65537, 0, -1441758, 65537, 0, -1376222, 65537, 0, -1310686, 65537, 0, -1245150, 65537, 0, -1179614, 65537, 0, -1114078, 65537, 0, -1048542, 65537, 0, -983006, 65537, 0, -917470, 65537, 0, -851934, 65537, 0, -786398, 65537, 0, -720862, 65537, 0, -655326, 65537, 0, -589790, 65537, 0, -524254, 65537, 0, -458718, 65537, 0, -393182, 65537, 0, -327646, 65537, 0, -1638365, 65537, 0, -1572829, 65537, 0, -1507293, 65537, 0, -1441757, 65537, 0, -1376221, 65537, 0, -1310685, 65537, 0, -1245149, 65537, 0, -1179613, 65537, 0, -1114077, 65537, 0, -1048541, 65537, 0, -983005, 65537, 0, -917469, 65537, 0, -851933, 65537, 0, -786397, 65537, 0, -720861, 65537, 0, -655325, 65537, 0, -589789, 65537, 0, -524253, 65537, 0, -458717, 65537, 0, -393181, 65537, 0, -327645, 65537, 0, -1638364, 65537, 0, -1572828, 65537, 0, -1507292, 65537, 0, -1441756, 65537, 0, -1376220, 65537, 0, -1310684, 65537, 0, -1245148, 65537, 0, -1179612, 65537, 0, -1114076, 65537, 0, -1048540, 65537, 0, -983004, 65537, 0, -917468, 65537, 0, -851932, 65537, 0, -786396, 65537, 0, -720860, 65537, 0, -655324, 65537, 0, -589788, 65537, 0, -524252, 65537, 0, -458716, 65537, 0, -393180, 65537, 0, -327644, 65537, 0, -1638363, 65537, 0, -1572827, 65537, 0, -1507291, 65537, 0, -1441755, 65537, 0, -1376219, 65537, 0, -1310683, 65537, 0, -1245147, 65537, 0, -1179611, 65537, 0, -1114075, 65537, 0, -1048539, 65537, 0, -983003, 65537, 0, -917467, 65537, 0, -851931, 65537, 0, -786395, 65537, 0, -720859, 65537, 0, -655323, 65537, 0, -589787, 65537, 0, -524251, 65537, 0, -458715, 65537, 0, -393179, 65537, 0, -327643, 65537, 0, -1638362, 65537, 0, -1572826, 65537, 0, -1507290, 65537, 0, -1441754, 65537, 0, -1376218, 65537, 0, -1310682, 65537, 0, -1245146, 65537, 0, -1179610, 65537, 0, -1114074, 65537, 0, -1048538, 65537, 0, -983002, 65537, 0, -917466, 65537, 0, -851930, 65537, 0, -786394, 65537, 0, -720858, 65537, 0, -655322, 65537, 0, -589786, 65537, 0, -524250, 65537, 0, -458714, 65537, 0, -393178, 65537, 0, -327642, 65537, 0, -1638361, 65537, 0, -1572825, 65537, 0, -1507289, 65537, 0, -1441753, 65537, 0, -1376217, 65537, 0, -1310681, 65537, 0, -1245145, 65537, 0, -1179609, 65537, 0, -1114073, 65537, 0, -1048537, 65537, 0, -983001, 65537, 0, -917465, 65537, 0, -851929, 65537, 0, -786393, 65537, 0, -720857, 65537, 0, -655321, 65537, 0, -589785, 65537, 0, -524249, 65537, 0, -458713, 65537, 0, -393177, 65537, 0, -327641, 65537, 0, -1572865, 1, 1, -1507329, 1, 1, -1441793, 1, 1, -1376257, 1, 1, -1310721, 1, 1, -1245185, 1, 1, -1179649, 1, 1, -1114113, 1, 1, -1048577, 1, 1, -983041, 1, 1, -917505, 1, 1, -851969, 1, 1, -786433, 1, 1, -720897, 1, 1, -655361, 1, 1, -589825, 1, 1, -524289, 1, 1, -458753, 1, 1, -393217, 1, 1, -327681, 1, 1, -1638360, 1, 1, -1572824, 1, 1, -1507288, 1, 1, -1441752, 1, 1, -1376216, 1, 1, -1310680, 1, 1, -1245144, 1, 1, -1179608, 1, 1, -1114072, 1, 1, -1048536, 1, 1, -983000, 1, 1, -917464, 1, 1, -851928, 1, 1, -786392, 1, 1, -720856, 1, 1, -655320, 1, 1, -589784, 1, 1, -524248, 1, 1, -458712, 1, 1, -393176, 1, 1)

[node name="Skwirrel" parent="." instance=ExtResource("2_ahhre")]
position = Vector2(583, -109)

[node name="SUS_Squirrel" parent="." instance=ExtResource("2_a1e7e")]
position = Vector2(1380, -103)

[node name="AcornSpawner" parent="." instance=ExtResource("5_klrrk")]
position = Vector2(896, -910)

[node name="AcornSpawner2" parent="." instance=ExtResource("5_klrrk")]
position = Vector2(542, -600)

[node name="AcornSpawner3" parent="." instance=ExtResource("5_klrrk")]
position = Vector2(1261, -566)

[node name="AcornSpawner4" parent="." instance=ExtResource("5_klrrk")]
position = Vector2(104, -652)

[node name="AcornSpawner5" parent="." instance=ExtResource("5_klrrk")]
position = Vector2(1602, -819)

[node name="GoldenAcornSpawner" parent="." instance=ExtResource("5_cqy1n")]
position = Vector2(1001, -2397)
