[gd_scene load_steps=4 format=3 uid="uid://drdx703jnl4i1"]

[ext_resource type="Script" path="res://Main/Main.gd" id="1_q0tcq"]
[ext_resource type="PackedScene" uid="uid://dumc0kfb1q6uy" path="res://Main/MainMenu.tscn" id="2_6qmaw"]
[ext_resource type="PackedScene" uid="uid://c33qajfw7k3wk" path="res://UI/LevelSelect.tscn" id="2_ps78j"]

[node name="Main" type="Node"]
script = ExtResource("1_q0tcq")

[node name="LevelSelect" parent="." instance=ExtResource("2_ps78j")]

[node name="MainMenu" parent="." instance=ExtResource("2_6qmaw")]

[node name="Button" type="Button" parent="."]
offset_right = 116.0
offset_bottom = 100.0
theme_override_font_sizes/font_size = 25
text = "Credits"
